CIRCUNFERENCIA ABDOMIAL,,,,,,,,,,
CODIGO,IDADE,DATA DE NASCIMENTO,SEXO,1ª MEDIDA,2ª MEDIDA,3ª MEDIDA,4ª MEDIDA,5ª MEDIDA,6ª MEDIDA,7ª MEDIDA
,,,,17/03/2014,30/06/2014,08/12/2014,09/03/2015,29/06/2015,30/11/2015,14/03/2016
1REV,,09/08/1937,1,74,74,82,82.5,77,80,76
2REV,,29/07/1949,1,101,92,98,99,98,97,98.5
3REV,,29/05/1950,0,82,,93,94,84.5,,
4REV,,01/03/1944,1,85,85.5,94,92,84,85.5,82.5
5REV,,08/08/1940,0,99,,111,92,110,94.5,94
6REV,,06/04/1936,0,95,98,96.5,105,107,93,96
7REV,,27/11/1933,0,,84,93,92,98,,
8REV,,05/08/1935,0,83,88,,,,,
9REV,,31/07/1946,0,107,107,,109,,,
10REV,,02/07/1959,0,114,111,119,117,114.1,113,113.5
11REV,,12/07/1949,0,,80,87,91,92.5,82.7,80
12REV,,29/11/1955,0,104,,,,,,
13REV,,14/02/1947,0,113,110,112,114,115,111,112.5
14REV,,15/10/1953,0,100,90,100.5,99,96,,
15REV,,31/08/1949,1,98,98.5,102,104,102,105,109
16REV,,14/01/1958,0,92,86,93,86,84,,91
17REV,,20/06/1943,0,85,87,98,97,102,95,96
18REV,,20/09/1943,0,83,85,92,90,82.3,89,88
19REV,,25/11/1939,0,77,76,85,85,,,74
20REV,,26/04/1940,0,88,86,89,,,,
21REV,,02/01/1945,0,80,81.5,86.5,86.5,81.5,81,81.5
22REV,,01/02/1951,0,97,100,105.5,101,101,99.5,93
23REV,,09/10/1948,0,,86,92,91,83,88,97
24REV,,22/11/1938,0,79,,86,85.5,80.5,86.5,85
25REV,,28/04/1935,0,87,84.5,91.5,,,,
26REV,,27/06/1953,0,,,91,90,93,93.7,87
27REV,,14/08/1947,0,,,,,,,
28REV,,08/10/1939,0,105,106,114,,,105,103.5
29REV,,06/01/1940,0,84,88.5,,,83.3,89,88.5
30REV,,25/02/1939,0,67,70,72.5,71,68,73,66.5
31REV,,11/04/1953,0,80,,,,,,
32REV,,04/09/1934,0,78,74,83.5,82,91,82,87
33REV,,08/03/1958,0,94,97,100,104,101.5,96,97.5
34REV,,22/08/1933,0,83,99,98,95,,,76
35REV,,31/08/1943,0,,,105,,,,
36REV,,15/06/1955,0,86,85,91,95,83,92,87
37REV,,13/12/1942,0,114,,,116,119,,
38REV,,17/01/1951,0,99,99,107.5,104,96.3,,99
39REV,,05/12/1948,0,81,85.5,89.5,91,84.5,91,86.5
40REV,,22/05/1949,0,85,85,95,94.5,89.5,91,93
41REV,,16/09/1940,0,,,,,,,
42REV,,07/04/1943,0,,,,,,,
43REV,,06/04/1937,0,98,108,101,108,107,105,
44REV,,08/09/1954,0,128,116,120,119.5,111,114,114
45REV,,04/12/1935,1,114,113,117,110,113,107,104.5
46REV,,05/12/1939,1,97.5,94,,,,100,
47REV,,18/12/1937,1,97,101,103,103,98,,95
48REV,,10/09/1944,1,111,109,111,114,105.5,110,109
49REV,,19/08/1939,0,73,73,79,83,75.3,80.5,81
50REV,,10/03/2026,0,83,76,83.5,86,,,79
51REV,,17/02/1936,0,,,,,,,
52REV,,07/02/1937,0,65,66,,,,,
53REV,,23/08/1948,0,89,88,94,89,,87.5,
54REV,,20/04/1940,0,100,106,,100,,,
55REV,,27/01/1939,0,,,,,,,
56REV,,28/07/1943,0,106,106,102,112.5,104,111,108
57REV,,06/07/1933,0,85,,86,,,,
58REV,,14/03/1949,1,79,86,91.5,87.5,85,,
59REV,,11/02/1937,1,104,103,107,104,105.3,105,105
60REV,,14/01/1955,0,74,71.5,77.5,73,70.5,71,72
61REV,,04/10/1930,0,,,,,,,
62REV,,22/06/1946,0,92,,95.5,96,96,92.5,
63REV,,02/04/1938,0,91,85,91.5,97,94.5,92,91
64REV,,19/02/1948,1,103,100,102,105,100.5,103,105
65REV,,03/08/1943,1,93,,102,103.5,100,94.5,100
66REV,,11/06/1949,1,,86,89,89,87,84,84
67REV,,09/02/1944,1,,73,76,76,79.5,77.5,72
68REV,,21/11/1936,1,108,100,101,111,,108.5,111
69REV,,25/01/1936,1,93,102,,,,,
70REV,,14/01/1947,1,89,90,91.5,92,87.5,87.5,91
71REV,,13/11/1951,0,89,86,94.5,92,85,98,88.5
72REV,,11/08/1934,0,81,78,85,84,87,84,79
73REV,,03/10/1930,0,104,101,112,115,111,,102
74REV,,19/06/1933,0,,,,,,,
75REV,,16/07/1947,0,81,82,88,89,,86,91
76REV,,15/02/2029,0,84,,90.5,88.5,80,87,78.5
77REV,,01/06/1946,0,86,84,98,93.5,,97,87
78REV,,17/10/1954,0,83,89,,91,82,90,88
79REV,,09/02/1944,1,116,118,117,120,116,121.5,118
80REV,,06/02/1941,0,,80,,89,86.5,86,87
81REV,,09/06/1941,0,90,90,94.5,95,88.4,93,93.5
82REV,,20/05/1942,0,85,87,93,88,,,84
83REV,,23/02/1961,0,95,95.5,100.5,93,95,96.5,
84REV,,18/10/1945,0,88,,96,94,,,91
85REV,,19/11/1943,0,79,74,87.5,,81,81,75
86REV,,04/04/1938,0,92,97,94,96,96.5,98.6,
87REV,,29/12/1943,0,,107,,,,,
88REV,,01/06/1948,0,,83,97,89,85,88,88
89REV,,02/07/1939,0,75,69,83.5,75,83,80.5,79.5
90REV,,03/03/1942,0,112,105,113,92.5,109,110.5,111.5
91REV,,27/04/1947,0,81,80,85.5,,77,79,77
92REV,,29/07/1934,0,71,71,87,,,,
93REV,,21/12/1945,0,109,109,111.5,108,109,107,106
94REV,,30/08/1951,0,66,,74,,,,
95REV,,06/03/1939,0,,,,78.5,,,
96REV,,18/05/1939,0,97,93,98.5,98,104,96,
97REV,,14/05/1945,0,86,81,84,80,83,78.5,77
98REV,,02/05/1940,0,103,,111,117,,,
99REV,,25/04/1939,0,99,94,98,102.5,98.6,95.5,93.5
100REV,,02/12/1951,0,119,119,119.5,119,120.3,120,121
101REV,,30/10/1953,0,96,95,96,96,95.7,98,98
102REV,,26/11/1942,0,,105.5,110.5,105,,107,
103REV,,05/10/1949,0,83.5,75,90.5,78,92,83,83
104REV,,24/09/1942,0,115,118,,,117,120,118
105REV,,03/08/1954,0,83,80,90.5,84,82.5,85,87
106REV,,20/04/1945,0,98,97,96,98.5,94.5,98.5,94
107REV,,25/04/1946,0,91,87.5,97,97,,93,89
108REV,,05/03/1951,0,89,89,,,,,90.5
109REV,,05/08/1933,0,81,80,84,,85.5,85,85
110REV,,12/01/1948,0,90,,,,,,
111REV,,14/11/1948,0,103,99,97,94,89.5,94,97.5
112REV,,20/08/1932,0,100,103,101,103,,96,96
113REV,,09/08/1944,0,118,117,118,120.5,117,116,117
114REV,,11/06/1943,0,90,97.5,101,99.5,98,101.5,97.5
115REV,,20/12/1947,0,67,75.5,83,,86,82,85
116REV,,18/05/1946,0,116,109,118,123,,112,107
117REV,,05/08/1944,0,86,83,95,94.5,,91,89
118REV,,28/10/1946,0,107,112,121.5,122,,120,119.5
119REV,,10/05/1938,0,,,,,,,
120REV,,08/04/1947,0,84,91,98.5,97,88.5,94.5,92
121REV,,08/05/1951,0,98,103,,108,,,103
122REV,,29/04/1954,0,,,,,,,
123REV,,18/05/1933,1,114,112,,,107,102,102
124REV,,05/02/1939,1,109,106,109.5,111.5,105,,
125REV,,03/12/1948,1,132,121,128,130,,128,126
126REV,,18/04/1948,1,85,84.5,84,85,85.5,,89
127REV,,18/12/1943,1,103,103,106,111,103,,102
128REV,,06/08/1944,1,90,,,94.5,,,93
129REV,,18/01/1948,0,95,91,94,92,98,99,89
130REV,,19/07/1952,0,89,,,,,,
131REV,,28/02/1950,0,99,97,103,,,,96
132REV,,24/08/1958,0,80,80,85,82,81.5,83,85.5
133REV,,09/05/1949,0,84,,90,88.5,81,,85
134REV,,16/12/1946,0,87,98,105,105,104,,102.5
135REV,,08/01/1944,1,89,91,93,,,97,91
136REV,,30/09/1960,0,109,112,121,113,113.5,111,119.5
137REV,,05/04/1946,0,85,83,91,,93,90,92
138REV,,15/08/1952,0,88,97,104,,97.2,98,
139REV,,05/06/1942,0,74,74,83,79,75.5,,
140REV,,03/05/1941,0,85.5,,,,,,
141REV,,05/08/1938,0,,,,,,,
142REV,,25/05/1943,0,78,78,91,89,87,89,61
143REV,,08/09/1936,0,79,83.5,,,,,
144REV,,01/07/1950,0,96,96.5,99,99,107,104,102
145REV,,27/08/1943,0,93,90,99,98,103,87.3,88
146REV,,23/03/1938,0,96,,,,,,
147REV,,14/05/1951,0,82,71,91,87,90,81,80
148REV,,06/11/1944,0,97,,,94,111,,89
149REV,,18/12/1948,0,,,,,,,
150REV,,30/06/1947,0,94,90,100.5,106,96,81,91
151REV,,16/12/1947,1,102,106,108,104,104,106,108
152REV,,14/09/1934,1,89,,,,,,
153REV,,17/02/1939,0,,,94.5,,,,
154REV,,08/03/1947,0,,,,,,,
155REV,,14/02/1940,0,,,,,,,
156REV,,22/07/1948,0,85.5,81.5,91,80,,,86
157REV,,28/07/1961,0,80,,,,,,77.5
158REV,,10/09/1952,0,,,,,,,100.5
1MUSC,,23/05/2025,0,,,,,,,
2MUSC,,14/04/1947,1,92,90,92.5,93,,,
3MUSC,,28/02/1948,1,121,,121.5,,,,
4MUSC,,23/08/1932,0,,104,106,,99,109,
5MUSC,,26/06/1952,0,,,,,,,
6MUSC,,08/04/1940,0,103,,103.5,101,,,
7MUSC,,19/01/1930,1,,,,,,,
8MUSC,,21/08/1950,1,,,,,,,
9MUSC,,26/02/1951,0,,104.5,,111,95,101,
10MUSC,,21/04/1950,0,83,79.5,83,81,,,
11MUSC,,02/12/1948,0,97,,,,,,
12MUSC,,07/04/1931,1,100.5,100,99.5,103,,,100
13MUSC,,05/08/2023,1,100,99,,,,,
14MUSC,,24/09/1944,0,118,,,,,,
15MUSC,,29/07/1931,1,109,111,116,111,,114,115.5
16MUSC,,13/04/1936,0,93,89,104,95,,96,98.5
17MUSC,,01/02/1945,1,,85,94,94,85.2,84,86
18MUSC,,02/05/1949,1,,81,,88,88,90,92
19MUSC,,30/09/1932,1,,,,,,,
20MUSC,,02/01/1948,1,105,101,96,104.5,99,94,
21MUSC,,12/06/1949,0,106,,,,,,
22MUSC,,11/01/52,0,,,101.5,100.5,91,,
23MUSC,,07/10/48   ,0,92,93,96,90,89,92,88.5
24MUSC,,05/09/1932,0,105,100,,,,,
25MUSC,,05/08/50  ,0,83,,94,,,,
26MUSC,,19/04/1947,0,90,94,,99,,,
27MUSC,,24/10/1944,0,102,,108,105,,,
28MUSC,,14/05/2028,0,93,86,,,,,
29MUSC,,09/11/1957,0,92,89.5,93.5,88,,,87
30MUSC,,01/06/1942,1,105,100,,,,,
31MUSC,,25/02/1930,1,108,,,,,,
32MUSC,,09/08/1943,1,106,106,114.5,117,,113,111
33MUSC,,15/03/1950,0,87,94,,94,,91,87
34MUSC,,10/04/1930,0,,98,103.5,106.5,,,108
35MUSC,,30/10/1953,0,93.5,86,,94,,,
36MUSC,,06/08/1958,0,89,86,91,92,84,89,86
37MUSC,,21/07/53  ,0,88.5,86.5,90.5,82,93,87,85
38MUSC,,08/11/1961,0,,,,,,,
39MUSC,,16/09/1941,0,99,102,106,110.5,,106,
40MUSC,,09/09/1954,0,101,105.5,,,,,
41MUSC,,18/06/1938,1,100,98,99,102.5,,98,
42MUSC,,01/12/1941,0,101,,112.5,110,,,99
43MUSC,,10/03/1949,1,,100.5,,96,,101,
44MUSC,,08/02/48   ,0,96,97,106,,,104,103.5
45MUSC,,25/06/1951,0,85,,,,,,
46MUSC,,15/11/1945,0,103.5,101.5,101,98,,,102.5
47MUSC,,14/02/1942,0,98,99,99.5,103,,100,98
48MUSC,,27/03/2029,0,73,72,,81,,77,81
49MUSC,,07/06/2023,1,74,73,,,,,
51MUSC,,10/11/1950,0,,,,,,86,85.5
52MUSC,,02/08/1955,0,,,,,,90,89
53MUSC,,28/07/1951,0,,,,,,98,
1GC,,30/06/1939,1,,,,,,,
2GC,,24/02/1931,1,91,91,95,97,91.5,,95.5
3GC,,16/10/1942,1,93,88,,,,96,99
4GC,,10/04/1933,0,,,,,,,
5GC,,07/06/1930,1,,,,,,,
6GC,,19/03/1936,0,,,,95,95,91.5,93
7GC,,19/04/1944,0,77,82,,,,,
8GC,,17/09/2025,1,,78,82,87,87.5,,83.5
9GC,,11/03/1945,1,98,98,,,99.5,,101
10GC,,29/05/1945,0,77,,,,,,81
11GC,,01/01/1933,0,,,86,,,,
12GC,,26/07/2029,0,,,,,,,
13GC,,28/02/1946,0,84,88,88,,,86,
14GC,,21/05/1934,0,,,,,,,
15GC,,06/01/1940,0,86,,,,,,88
16GC,,30/01/1954,0,,,,,,,
17GC,,12/12/1943,0,,,,,,,
18GC,,22/09/1960,0,,,,,,82,
19GC,,20/08/2026,0,,77,85.5,84,81,81,
20GC,,20/08/1939,0,79,80,,,107,83,83
21GC,,11/08/2024,0,97,100,107,96,102,98,
22GC,,08/09/1947,0,,,,,,,
23GC,,16/04/1954,0,,,86,88,,,83
24GC,,10/02/1944,0,,,,,,,
25GC,,29/06/1936,0,,,,,,,
26GC,,05/08/1932,0,,,,,,,
27GC,,31/10/1941,0,84,81,,,89,79,85
28GC,,01/12/1944,0,69,70,76,72,,72.5,66.5
29GC,,11/08/1953,0,101,104,119,111.5,,110,109
30GC,,08/01/1944,0,86,,99,,,92.5,
31GC,,29/08/1939,0,,82,91,89,,,
32GC,,27/03/1949,0,88,88,94.5,93,,,
33GC,,25/09/1942,0,,83,75,79,,83,
34GC,,26/07/1938,0,,108.5,118,108.5,103,103,
35GC,,09/04/1947,0,98,99,,104.5,,98,97.5
36GC,,13/01/1934,0,,81,87,87,82,,
37GC,,29/03/1949,0,119,,,,125.2,,122
38GC,,18/08/1943,1,,118,,,,109,
39GC,,16/11/1952,1,,,,,,97,
40GC,,24/02/1956,1,,93,,,97,,103.5
41GC,,01/06/1937,0,,,,,,,
42GC,,27/11/1933,0,76,,94,87.5,83,,
43GC,,12/04/1955,0,95,90,61,,89,93,87
44GC,,03/06/1947,0,,,,,,,
45GC,,09/05/1931,0,,,,,,,
46GC,,14/08/1947,0,95.5,,,99,105,,94
47GC,,08/01/1949,0,,,,,,105,
