CAMINHADA,,,,,,,,,,
CODIGO,IDADE,DATA DE NASCIMENTO,SEXO,1ª MEDIDA,2ª MEDIDA,3ª MEDIDA,4ª MEDIDA,5ª MEDIDA,6ª MEDIDA,7ª MEDIDA
,,,,17/03/2014,30/06/2014,08/12/2014,09/03/2015,29/06/2015,30/11/2015,14/03/2016
1REV,,09/08/1937,1,585,565,606,540,644,570,
2REV,,29/07/1949,1,459,475,,,568,525,
3REV,,29/05/1950,0,570,,,584,0,,
4REV,,01/03/1944,1,462,441,510,,494,,
5REV,,08/08/1940,0,465,,554,570,540,495,
6REV,,06/04/1936,0,402,450,,,,,
7REV,,27/11/1933,0,,441,510,480,508,,
8REV,,05/08/1935,0,324,300,,,,,
9REV,,31/07/1946,0,,420,,,,,
10REV,,02/07/1959,0,504,517,564,570,594,496,
11REV,,12/07/1949,0,,480,519,510,520,,483
12REV,,29/11/1955,0,420,,,,,,
13REV,,14/02/1947,0,453,436,471,472,450,450,
14REV,,15/10/1953,0,465,475,510,510,540,,
15REV,,31/08/1949,1,582,555,573,590,636,660,
16REV,,14/01/1958,0,548,570,576,600,595,,
17REV,,20/06/1943,0,500,,552,545,550,540,540
18REV,,20/09/1943,0,540,,603,,630,600,580
19REV,,25/11/1939,0,360,,,,,,
20REV,,26/04/1940,0,434,460,510,,,,
21REV,,02/01/1945,0,488,487,544,560,570,600,
22REV,,01/02/1951,0,480,495,540,,510,520,
23REV,,09/10/1948,0,,406,510,500,480,,480
24REV,,22/11/1938,0,489,,579,,550,552,570
25REV,,28/04/1935,0,510,,516,,,,
26REV,,27/06/1953,0,,,535,550,550,480,
27REV,,14/08/1947,0,,,,,,,
28REV,,08/10/1939,0,333,,,,,,
29REV,,06/01/1940,0,399,447,,,520,450,
30REV,,25/02/1939,0,610,647,645,660,690,660,
31REV,,11/04/1953,0,,,,,,,
32REV,,04/09/1934,0,440,430,497,510,435,450,450
33REV,,08/03/1958,0,495,470,600,588,630,600,
34REV,,22/08/1933,0,385,,,,,,
35REV,,31/08/1943,0,,,,,,,
36REV,,15/06/1955,0,513,565,561,,548,600,
37REV,,13/12/1942,0,465,,,,,,
38REV,,17/01/1951,0,555,,600,600,645,,
39REV,,05/12/1948,0,552,572,603,624,650,630,600
40REV,,22/05/1949,0,,490,558,,658,480,575
41REV,,16/09/1940,0,,,,,,,
42REV,,07/04/1943,0,,,,,,,
43REV,,06/04/1937,0,435,440,471,455,435,,
44REV,,08/09/1954,0,492,470,,500,530,510,518
45REV,,04/12/1935,1,450,426,570,510,560,580,500
46REV,,05/12/1939,1,450,435,,,,,
47REV,,18/12/1937,1,375,,,398,,,390
48REV,,10/09/1944,1,561,584,681,,676,570,
49REV,,19/08/1939,0,,,510,480,,510,
50REV,,10/03/2026,0,378,410,,470,,,386
51REV,,17/02/1936,0,,,,,,,
52REV,,07/02/1937,0,394,380,,,,,
53REV,,23/08/1948,0,549,550,615,,,570,
54REV,,20/04/1940,0,356,315,,430,,,
55REV,,27/01/1939,0,,,,,,,
56REV,,28/07/1943,0,369,405,426,562,445,330,400
57REV,,06/07/1933,0,210,,,,,,
58REV,,14/03/1949,1,,510,,,,,
59REV,,11/02/1937,1,483,469,525,575,538,510,510
60REV,,14/01/1955,0,510,496,555,,555,600,585
61REV,,04/10/1930,0,,,,,,,
62REV,,22/06/1946,0,510,,558,570,540,530,
63REV,,02/04/1938,0,,475,471,,488,460,450
64REV,,19/02/1948,1,573,614,666,704,704,660,
65REV,,03/08/1943,1,560,,,652,644,625,615
66REV,,11/06/1949,1,,660,741,,810,760,
67REV,,09/02/1944,1,,553,585,600,600,,
68REV,,21/11/1936,1,465,436,510,,,470,480
69REV,,25/01/1936,1,380,380,,,,,
70REV,,14/01/1947,1,,,585,,630,,
71REV,,13/11/1951,0,510,500,516,,540,,
72REV,,11/08/1934,0,492,553,525,570,590,585,
73REV,,03/10/1930,0,364,380,,,310,,
74REV,,19/06/1933,0,,,,,,,
75REV,,16/07/1947,0,422,,,470,,450,468
76REV,,15/02/2029,0,372,,363,380,415,376,385
77REV,,01/06/1946,0,537,528,585,,,585,600
78REV,,17/10/1954,0,514,492,,600,570,600,
79REV,,09/02/1944,1,456,500,603,600,585,570,
80REV,,06/02/1941,0,,,,,650,605,
81REV,,09/06/1941,0,525,525,573,,630,590,600
82REV,,20/05/1942,0,,476,,532,,,
83REV,,23/02/1961,0,,554,621,,585,,
84REV,,18/10/1945,0,470,,582,,,,525
85REV,,19/11/1943,0,438,435,450,,,400,495
86REV,,04/04/1938,0,394,,,420,,,
87REV,,29/12/1943,0,,406,,,,0,
88REV,,01/06/1948,0,,465,,535,540,480,558
89REV,,02/07/1939,0,486,494,,,560,510,
90REV,,03/03/1942,0,405,465,471,,506,420,480
91REV,,27/04/1947,0,540,527,,,608,546,
92REV,,29/07/1934,0,504,468,540,,,,
93REV,,21/12/1945,0,404,414,,460,460,420,
94REV,,30/08/1951,0,,,636,,,,
95REV,,06/03/1939,0,,,,,,,
96REV,,18/05/1939,0,390,,,,,420,
97REV,,14/05/1945,0,474,523,600,600,615,600,
98REV,,02/05/1940,0,,,420,,,,
99REV,,25/04/1939,0,441,436,465,,510,480,520
100REV,,02/12/1951,0,550,525,,600,634,540,600
101REV,,30/10/1953,0,501,495,563,,570,520,525
102REV,,26/11/1942,0,,376,,464,,,
103REV,,05/10/1949,0,620,582,645,640,660,650,640
104REV,,24/09/1942,0,441,435,,,,,420
105REV,,03/08/1954,0,480,570,,632,656,580,
106REV,,20/04/1945,0,435,460,465,,502.31,435,
107REV,,25/04/1946,0,489,528,540,,,540,
108REV,,05/03/1951,0,,510,,,,,
109REV,,05/08/1933,0,528,,570,,656.1,576.26,
110REV,,12/01/1948,0,510,,,,,,
111REV,,14/11/1948,0,432,450,540,,572,518,
112REV,,20/08/1932,0,372,,456,,,457,442.93
113REV,,09/08/1944,0,394,376,,,,,456.27
114REV,,11/06/1943,0,537,555,582,,600,,570
115REV,,20/12/1947,0,554,498,600,,570,570,578.04
116REV,,18/05/1946,0,,,,,,,
117REV,,05/08/1944,0,480,493,540,480,,420,
118REV,,28/10/1946,0,398,,456,,,450,440
119REV,,10/05/1938,0,,,,,,,
120REV,,08/04/1947,0,471,432,489,522,570,510,510
121REV,,08/05/1951,0,462,424,,508,,,
122REV,,29/04/1954,0,,,,,,,
123REV,,18/05/1933,1,411,403,,,315,380,
124REV,,05/02/1939,1,450,480,525,465,570,,
125REV,,03/12/1948,1,444,360,480,,,450,438
126REV,,18/04/1948,1,605,645,660,,750,,650
127REV,,18/12/1943,1,500,480,565,563,584,,540
128REV,,06/08/1944,1,,,,,,,500
129REV,,18/01/1948,0,495,475,510,525,516,510,470
130REV,,19/07/1952,0,423,,,,,,
131REV,,28/02/1950,0,465,,,,,,520
132REV,,24/08/1958,0,426,520,549,552,465,540,
133REV,,09/05/1949,0,537,,576,,580,,570
134REV,,16/12/1946,0,526,525,570,,,,
135REV,,08/01/1944,1,,,,,,,
136REV,,30/09/1960,0,519,495,510,575,585,540,
137REV,,05/04/1946,0,510,474,565,,550,540,525
138REV,,15/08/1952,0,,463,522,,,505,
139REV,,05/06/1942,0,426,435,435,,478,,
140REV,,03/05/1941,0,,,,,,,
141REV,,05/08/1938,0,,,,,,,
142REV,,25/05/1943,0,560,550,564,,300,555,540
143REV,,08/09/1936,0,420,,,,,,
144REV,,01/07/1950,0,585,580,654,570,640,610,600
145REV,,27/08/1943,0,489,440,462,506,515,540,530
146REV,,23/03/1938,0,378,,,,,,
147REV,,14/05/1951,0,,,573,,,,
148REV,,06/11/1944,0,,,,436,480,,468
149REV,,18/12/1948,0,,,,,,,
150REV,,30/06/1947,0,,,561,,550,,
151REV,,16/12/1947,1,584,510,681,660,646,630,610
152REV,,14/09/1934,1,390,,,,,,
153REV,,17/02/1939,0,,,360,,,,
154REV,,08/03/1947,0,,,,,,,
155REV,,14/02/1940,0,,,,,,,
156REV,,22/07/1948,0,513,,582,580,,,
157REV,,28/07/1961,0,558,,,,,,
158REV,,10/09/1952,0,,,,,,,
1MUSC,,23/05/2025,0,,,,,,,
2MUSC,,14/04/1947,1,504,438,525,580,,,
3MUSC,,28/02/1948,1,,,,,,,
4MUSC,,23/08/1932,0,,462,489,,534,512,
5MUSC,,26/06/1952,0,,,,,,,
6MUSC,,08/04/1940,0,465,,,510,,,
7MUSC,,19/01/1930,1,,,,,,,
8MUSC,,21/08/1950,1,,,,,,,
9MUSC,,26/02/1951,0,,510,,,590,600,
10MUSC,,21/04/1950,0,462,474,513,540,,,
11MUSC,,02/12/1948,0,526,,,,,,
12MUSC,,07/04/1931,1,524,513,,550,,,
13MUSC,,05/08/2023,1,411,462,513,,,,
14MUSC,,24/09/1944,0,372,,,,,,
15MUSC,,29/07/1931,1,477,510,705,540,,512,610
16MUSC,,13/04/1936,0,454,,,,,465,440
17MUSC,,01/02/1945,1,,645,,690,630,705,
18MUSC,,02/05/1949,1,,465,600,,590,580,
19MUSC,,30/09/1932,1,,,,,,,
20MUSC,,02/01/1948,1,540,570,,,608,630,
21MUSC,,12/06/1949,0,489,,,,,,
22MUSC,,11/01/52,0,,,,,,,
23MUSC,,07/10/48   ,0,,450,,,,,
24MUSC,,05/09/1932,0,300,,,,,,
25MUSC,,05/08/50  ,0,500,,492,,,,
26MUSC,,19/04/1947,0,483,493,,,,,
27MUSC,,24/10/1944,0,462,,540,514,,,
28MUSC,,14/05/2028,0,,,,,,,
29MUSC,,09/11/1957,0,522,498,,506,,,
30MUSC,,01/06/1942,1,372,418,513,,,,
31MUSC,,25/02/1930,1,408,,,,,,
32MUSC,,09/08/1943,1,435,460,,,,540,560
33MUSC,,15/03/1950,0,486,480,,,,542,518
34MUSC,,10/04/1930,0,,,609,,,,
35MUSC,,30/10/1953,0,451,498,540,,,,
36MUSC,,06/08/1958,0,595,570,,620,630,650,640
37MUSC,,21/07/53  ,0,489,456,,540,580,555,
38MUSC,,08/11/1961,0,,,,,,,
39MUSC,,16/09/1941,0,420,380,,,,,
40MUSC,,09/09/1954,0,480,,,,,,
41MUSC,,18/06/1938,1,420,396,,,,510,
42MUSC,,01/12/1941,0,,,,,,,454
43MUSC,,10/03/1949,1,,440,,,,,
44MUSC,,08/02/48   ,0,466,485,543,,,525,558
45MUSC,,25/06/1951,0,465,,540,,,,
46MUSC,,15/11/1945,0,552,510,,540,,,
47MUSC,,14/02/1942,0,375,465,,514,,495,520
48MUSC,,27/03/2029,0,325,300,,320,,330,316
49MUSC,,07/06/2023,1,,235,,,,,
51MUSC,,10/11/1950,0,,,,,,645,510
52MUSC,,02/08/1955,0,,,,,,600,570
53MUSC,,28/07/1951,0,,,,,,510,
1GC,,30/06/1939,1,,,,,,,
2GC,,24/02/1931,1,424,475,,,570,,458
3GC,,16/10/1942,1,454,495,,,,585,
4GC,,10/04/1933,0,,,,,,,
5GC,,07/06/1930,1,,,,,,,
6GC,,19/03/1936,0,,,,,520,498,540
7GC,,19/04/1944,0,540,580,,,,,
8GC,,17/09/2025,1,,-,,,,,
9GC,,11/03/1945,1,,-,,,,,
10GC,,29/05/1945,0,436,,,,,,560
11GC,,01/01/1933,0,,,570,,,,
12GC,,26/07/2029,0,,,,,,,
13GC,,28/02/1946,0,480,480,622,,,680,
14GC,,21/05/1934,0,,,,,,,
15GC,,06/01/1940,0,430,,,,,,464
16GC,,30/01/1954,0,,,,,,,
17GC,,12/12/1943,0,,,,,,,
18GC,,22/09/1960,0,,,,,,420,
19GC,,20/08/2026,0,,374,414,398,390,400,
20GC,,20/08/1939,0,435,440,,,524,480,480
21GC,,11/08/2024,0,254,230,252,,298,,
22GC,,08/09/1947,0,,,,,,,
23GC,,16/04/1954,0,,,583,,,,540
24GC,,10/02/1944,0,,,,,,,
25GC,,29/06/1936,0,,,,,,,
26GC,,05/08/1932,0,,,,,,,
27GC,,31/10/1941,0,489,492,,,570,510,570
28GC,,01/12/1944,0,447,466,510,540,,520,
29GC,,11/08/1953,0,450,-,,,,,
30GC,,08/01/1944,0,432,,432,,,,
31GC,,29/08/1939,0,,527,558,580,,,
32GC,,27/03/1949,0,,-,471,,,,
33GC,,25/09/1942,0,,440,519,,,,
34GC,,26/07/1938,0,,-,,,,270,
35GC,,09/04/1947,0,372,-,,,,326,
36GC,,13/01/1934,0,,290,522,488,510,,
37GC,,29/03/1949,0,537,,,,630,,
38GC,,18/08/1943,1,,-,,,,520,
39GC,,16/11/1952,1,,,,,,465,
40GC,,24/02/1956,1,,465,,,,,480
41GC,,01/06/1937,0,,,,,,,
42GC,,27/11/1933,0,,,,,,,
43GC,,12/04/1955,0,530,520,,,540,580,585
44GC,,03/06/1947,0,,,,,,,
45GC,,09/05/1931,0,,,,,,,
46GC,,14/08/1947,0,432,,,,505,,494
47GC,,08/01/1949,0,,,,,,400,
