FLEXIBILIDADE,,,,,,,,,,
CODIGO,IDADE,DATA DE NASCIMENTO,SEXO,1ª MEDIDA,2ª MEDIDA,3ª MEDIDA,4ª MEDIDA,5ª MEDIDA,6ª MEDIDA,7ª MEDIDA
,,,,17/03/2014,30/06/2014,08/12/2014,09/03/2015,29/06/2015,30/11/2015,14/03/2016
1REV,,09/08/1937,1,270,272,224,,247,249,234
2REV,,29/07/1949,1,384,376,353,360,369,365,359
3REV,,29/05/1950,0,405,,380,400,384,,
4REV,,01/03/1944,1,374,375,405,420,364,379,380
5REV,,08/08/1940,0,325,,322,300,335,306,331
6REV,,06/04/1936,0,190,180,250,220,200,230,170
7REV,,27/11/1933,0,,249,233,266,280,,
8REV,,05/08/1935,0,345,335,,,,,
9REV,,31/07/1946,0,-,-,,145,,,
10REV,,02/07/1959,0,259,222,171,245,233,230,224
11REV,,12/07/1949,0,,370,340,350,330,310,305
12REV,,29/11/1955,0,145,,,,,,
13REV,,14/02/1947,0,317,318,333,323,308,314,302
14REV,,15/10/1953,0,159,160,164,146,75,,
15REV,,31/08/1949,1,230,253,223,220,191,205,170
16REV,,14/01/1958,0,294,295,294,285,350,,278
17REV,,20/06/1943,0,250,240,250,265,203,290,250
18REV,,20/09/1943,0,230,220,310,300,221,235,222
19REV,,25/11/1939,0,385,410,410,397,,,370
20REV,,26/04/1940,0,175,200,200,,,,
21REV,,02/01/1945,0,270,280,280,253,228,249,220
22REV,,01/02/1951,0,294,270,247,260,243,250,241
23REV,,09/10/1948,0,,100,100,123,100,110,100
24REV,,22/11/1938,0,385,,387,390,390,393,394
25REV,,28/04/1935,0,273,276,252,,,,
26REV,,27/06/1953,0,,,370,401,365,330,313
27REV,,14/08/1947,0,,,,,,,
28REV,,08/10/1939,0,323,320,,,,355,332
29REV,,06/01/1940,0,99,81,,,91,97,91
30REV,,25/02/1939,0,272,260,223,253,243,230,225
31REV,,11/04/1953,0,400,,,,,,
32REV,,04/09/1934,0,275,300,310,280,245,224,241
33REV,,08/03/1958,0,300,250,225,247,217,300,254
34REV,,22/08/1933,0,302,290,290,310,,,307
35REV,,31/08/1943,0,,,270,,,,
36REV,,15/06/1955,0,330,360,345,349,363,354,353
37REV,,13/12/1942,0,94,,,100,75,,
38REV,,17/01/1951,0,150,175,157,170,143,,430
39REV,,05/12/1948,0,375,380,359,353,360,373,360
40REV,,22/05/1949,0,205,205,217,200,148,210,205
41REV,,16/09/1940,0,,,,,,,
42REV,,07/04/1943,0,,,,,,,
43REV,,06/04/1937,0,223,240,190,140,210,,
44REV,,08/09/1954,0,87,118,,142,135,160,90
45REV,,04/12/1935,1,130,190,166,160,152,181,141
46REV,,05/12/1939,1,208,215,,,,200,
47REV,,18/12/1937,1,0,-,,,,,
48REV,,10/09/1944,1,246,224,220,250,247,231,231
49REV,,19/08/1939,0,320,360,308,310,347,320,283
50REV,,10/03/2026,0,-,230,210,180,,,208
51REV,,17/02/1936,0,,,,,,,
52REV,,07/02/1937,0,250,250,,,,,
53REV,,23/08/1948,0,305,295,314,300,,301,
54REV,,20/04/1940,0,308,265,,320,,,
55REV,,27/01/1939,0,,,,,,,
56REV,,28/07/1943,0,213,185,210,205,210,240,184
57REV,,06/07/1933,0,100,,210,,,,
58REV,,14/03/1949,1,415,410,394,430,403,,
59REV,,11/02/1937,1,210,212,205,198,190,186,197
60REV,,14/01/1955,0,120,235,100,130,98,104,91
61REV,,04/10/1930,0,,,,,,,
62REV,,22/06/1946,0,249,,230,256,223,223,
63REV,,02/04/1938,0,240,255,300,267,258,290,228
64REV,,19/02/1948,1,202,215,219,215,230,190,214
65REV,,03/08/1943,1,94,,140,90,68,90,60
66REV,,11/06/1949,1,,330,349,320,320,312,299
67REV,,09/02/1944,1,,390,400,365,410,400,361
68REV,,21/11/1936,1,119,133,113,140,,100,100
69REV,,25/01/1936,1,336,360,,,,,
70REV,,14/01/1947,1,286,270,256,310,255,246,270
71REV,,13/11/1951,0,278,320,291,295,333,350,270
72REV,,11/08/1934,0,198,206,214,189,183,185,185
73REV,,03/10/1930,0,63,75,70,65,90,,45
74REV,,19/06/1933,0,,,,,,,
75REV,,16/07/1947,0,230,324,300,313,,279,300
76REV,,15/02/2029,0,240,,305,265,257,240,254
77REV,,01/06/1946,0,359,370,370,380,,354,375
78REV,,17/10/1954,0,170,235,,242,218,238,202
79REV,,09/02/1944,1,154,165,154,125,180,132,105
80REV,,06/02/1941,0,,315,,330,305,323,327
81REV,,09/06/1941,0,255,275,235,280,242,260,250
82REV,,20/05/1942,0,250,226,243,170,,,150
83REV,,23/02/1961,0,185,242,245,270,245,254,
84REV,,18/10/1945,0,340,,365,340,,,314
85REV,,19/11/1943,0,117,108,99,,117,115,135
86REV,,04/04/1938,0,120,235,240,255,223,240,
87REV,,29/12/1943,0,,225,,,,,
88REV,,01/06/1948,0,,310,320,350,298,330,311
89REV,,02/07/1939,0,310,335,321,340,341,335,340
90REV,,03/03/1942,0,263,260,204,330,213,207,235
91REV,,27/04/1947,0,359,274,277,,293,285,289
92REV,,29/07/1934,0,275,240,270,,,,
93REV,,21/12/1945,0,152,154,158,130,174,150,122
94REV,,30/08/1951,0,335,,337,,,,
95REV,,06/03/1939,0,,,,382,,,
96REV,,18/05/1939,0,95,111,130,150,126,160,
97REV,,14/05/1945,0,287,322,331,300,292,296,290
98REV,,02/05/1940,0,-,,300,330,,,
99REV,,25/04/1939,0,157,141,123,140,135,116,155
100REV,,02/12/1951,0,100,123,90,110,112,130,120
101REV,,30/10/1953,0,369,362,353,370,345,349,340
102REV,,26/11/1942,0,,233,218,223,,235,
103REV,,05/10/1949,0,260,264,280,260,262,266,242
104REV,,24/09/1942,0,119,131,,,,137,160
105REV,,03/08/1954,0,244,242,252,257,235,242,213
106REV,,20/04/1945,0,258,275,241,270,240,240,231
107REV,,25/04/1946,0,368,372,399,370,,388,370
108REV,,05/03/1951,0,430,429,,,,,398
109REV,,05/08/1933,0,98,95,140,,125,180,98
110REV,,12/01/1948,0,345,,,,,,
111REV,,14/11/1948,0,144,158,179,170,133,119,123
112REV,,20/08/1932,0,334,320,305,340,,370,348
113REV,,09/08/1944,0,255,280,280,,270,310,271
114REV,,11/06/1943,0,365,299,213,300,302,281,285
115REV,,20/12/1947,0,305,293,318,,302,286,310
116REV,,18/05/1946,0,320,350,300,310,,330,310
117REV,,05/08/1944,0,315,255,235,260,,300,235
118REV,,28/10/1946,0,215,205,171,210,,197,230
119REV,,10/05/1938,0,,,,,,,
120REV,,08/04/1947,0,310,295,285,312,280,310,280
121REV,,08/05/1951,0,195,187,,197,,,127
122REV,,29/04/1954,0,,,,,,,
123REV,,18/05/1933,1,210,194,,,218,130,189
124REV,,05/02/1939,1,249,240,240,230,290,,
125REV,,03/12/1948,1,170,160,170,170,,180,146
126REV,,18/04/1948,1,153,145,195,160,134,,117
127REV,,18/12/1943,1,125,220,170,180,190,,145
128REV,,06/08/1944,1,-,,,220,,,179
129REV,,18/01/1948,0,215,210,195,223,195,260,176
130REV,,19/07/1952,0,250,,,,,,
131REV,,28/02/1950,0,164,183,145,,,,143
132REV,,24/08/1958,0,185,210,179,200,181,240,209
133REV,,09/05/1949,0,340,,380,360,373,,345
134REV,,16/12/1946,0,220,211,230,210,215,,182
135REV,,08/01/1944,1,230,210,280,,,280,184
136REV,,30/09/1960,0,248,259,236,278,285,224,240
137REV,,05/04/1946,0,270,280,260,,264,280,295
138REV,,15/08/1952,0,350,381,345,,360,357,
139REV,,05/06/1942,0,220,212,181,190,197,,
140REV,,03/05/1941,0,214,,,,,,
141REV,,05/08/1938,0,,,,,,,
142REV,,25/05/1943,0,255,270,202,210,182,220,230
143REV,,08/09/1936,0,425,421,,,,,
144REV,,01/07/1950,0,245,237,235,220,250,238,237
145REV,,27/08/1943,0,140,110,100,105,95,100,86
146REV,,23/03/1938,0,90,,,,,,
147REV,,14/05/1951,0,350,354,321,335,307,330,328
148REV,,06/11/1944,0,350,,,390,350,,361
149REV,,18/12/1948,0,,,,,,,
150REV,,30/06/1947,0,345,355,378,350,363,360,336
151REV,,16/12/1947,1,230,155,165,205,180,195,127
152REV,,14/09/1934,1,270,,,,,,
153REV,,17/02/1939,0,,,,,,,
154REV,,08/03/1947,0,,,,,,,
155REV,,14/02/1940,0,,,,,,,
156REV,,22/07/1948,0,312,292,312,285,,,245
157REV,,28/07/1961,0,287,,,,,,301
158REV,,10/09/1952,0,,,,,,,263
1MUSC,,23/05/2025,0,,,,,,,
2MUSC,,14/04/1947,1,340,345,360,355,,,
3MUSC,,28/02/1948,1,214,,135,,,,
4MUSC,,23/08/1932,0,,139,150,,143,140,
5MUSC,,26/06/1952,0,,,,,,,
6MUSC,,08/04/1940,0,170,,246,183,,,
7MUSC,,19/01/1930,1,,,,,,,
8MUSC,,21/08/1950,1,,,,,,,
9MUSC,,26/02/1951,0,,224,,260,233,248,
10MUSC,,21/04/1950,0,330,313,330,300,,,
11MUSC,,02/12/1948,0,298,,,,,,
12MUSC,,07/04/1931,1,180,205,206,174,,,180
13MUSC,,05/08/2023,1,156,90,,,,,
14MUSC,,24/09/1944,0,208,,,,,,
15MUSC,,29/07/1931,1,93,102,110,120,,91,70
16MUSC,,13/04/1936,0,110,129,124,137,,95,83
17MUSC,,01/02/1945,1,,170,130,140,110,160,118
18MUSC,,02/05/1949,1,,270,,210,220,226,195
19MUSC,,30/09/1932,1,,,,,,,
20MUSC,,02/01/1948,1,213,257,240,240,240,235,
21MUSC,,12/06/1949,0,275,,,,,,
22MUSC,,11/01/52,0,,,335,350,345,,
23MUSC,,07/10/48   ,0,255,270,290,267,230,270,260
24MUSC,,05/09/1932,0,282,311,,,,,
25MUSC,,05/08/50  ,0,311,,254,,,,
26MUSC,,19/04/1947,0,154,183,,160,,,
27MUSC,,24/10/1944,0,257,,278,250,,,
28MUSC,,14/05/2028,0,223,-,,,,,
29MUSC,,09/11/1957,0,214,236,204,180,,,184
30MUSC,,01/06/1942,1,116,140,,,,,
31MUSC,,25/02/1930,1,,,,,,,
32MUSC,,09/08/1943,1,190,100,120,135,,180,240
33MUSC,,15/03/1950,0,317,278,,330,,358,340
34MUSC,,10/04/1930,0,,-,,,,,
35MUSC,,30/10/1953,0,349,350,,370,,,
36MUSC,,06/08/1958,0,394,390,395,390,400,400,401
37MUSC,,21/07/53  ,0,317,272,310,275,287,284,289
38MUSC,,08/11/1961,0,,,,,,,
39MUSC,,16/09/1941,0,240,180,180,170,,168,
40MUSC,,09/09/1954,0,130,180,,,,,
41MUSC,,18/06/1938,1,142,180,120,140,,116,
42MUSC,,01/12/1941,0,287,,270,280,,,290
43MUSC,,10/03/1949,1,,110,,82,,100,
44MUSC,,08/02/48   ,0,260,265,,,,254,230
45MUSC,,25/06/1951,0,370,,,,,,
46MUSC,,15/11/1945,0,296,322,348,363,,,273
47MUSC,,14/02/1942,0,193,201,200,175,,185,163
48MUSC,,27/03/2029,0,155,100,,250,,282,220
49MUSC,,07/06/2023,1,55,60,,,,,
51MUSC,,10/11/1950,0,,,,,,395,352
52MUSC,,02/08/1955,0,,,,,,328,375
53MUSC,,28/07/1951,0,,,,,,336,
1GC,,30/06/1939,1,,,,,,,
2GC,,24/02/1931,1,278,308,330,280,289,,290
3GC,,16/10/1942,1,142,190,,,,160,170
4GC,,10/04/1933,0,,,,,,,
5GC,,07/06/1930,1,,,,,,,
6GC,,19/03/1936,0,,,,280,251,261,258
7GC,,19/04/1944,0,400,428,,,,,
8GC,,17/09/2025,1,,-,180,180,,,
9GC,,11/03/1945,1,323,260,,,260,,228
10GC,,29/05/1945,0,264,,,,,,260
11GC,,01/01/1933,0,,,406,,,,
12GC,,26/07/2029,0,,,,,,,
13GC,,28/02/1946,0,335,315,319,,,324,
14GC,,21/05/1934,0,,,,,,,
15GC,,06/01/1940,0,165,,,,,,270
16GC,,30/01/1954,0,,,,,,,
17GC,,12/12/1943,0,,,,,,,
18GC,,22/09/1960,0,,,,,,410,
19GC,,20/08/2026,0,,320,310,295,310,293,
20GC,,20/08/1939,0,300,335,,,341,320,317
21GC,,11/08/2024,0,50,71,102,,120,,
22GC,,08/09/1947,0,,,,,,,
23GC,,16/04/1954,0,,,260,290,,,245
24GC,,10/02/1944,0,,,,,,,
25GC,,29/06/1936,0,,,,,,,
26GC,,05/08/1932,0,,,,,,,
27GC,,31/10/1941,0,299,285,,,300,240,284
28GC,,01/12/1944,0,290,310,333,320,,327,305
29GC,,11/08/1953,0,170,160,170,165,,155,180
30GC,,08/01/1944,0,60,,104,,,,
31GC,,29/08/1939,0,,334,298,367,,,
32GC,,27/03/1949,0,205,194,190,220,,,
33GC,,25/09/1942,0,,210,180,197,,,
34GC,,26/07/1938,0,,295,,,,,
35GC,,09/04/1947,0,355,350,,310,,312,305
36GC,,13/01/1934,0,,25,50,4,48,,
37GC,,29/03/1949,0,50,,,,20,,48
38GC,,18/08/1943,1,,165,,,,171,
39GC,,16/11/1952,1,,,,,,131,
40GC,,24/02/1956,1,,390,,,382,,365
41GC,,01/06/1937,0,,,,,,,
42GC,,27/11/1933,0,80,,,93,115,,
43GC,,12/04/1955,0,300,325,380,,335,360,338
44GC,,03/06/1947,0,,,,,,,
45GC,,09/05/1931,0,,,,,,,
46GC,,14/08/1947,0,222,,,225,240,,250
47GC,,08/01/1949,0,,,,,,264,
