SENTAR LEVANTAR,,,,,,,,,,
CODIGO,IDADE,DATA DE NASCIMENTO,SEXO,1ª MEDIDA,2ª MEDIDA,3ª MEDIDA,4ª MEDIDA,5ª MEDIDA,6ª MEDIDA,7ª MEDIDA
,,,,17/03/2014,30/06/2014,08/12/2014,09/03/2015,29/06/2015,30/11/2015,14/03/2016
1REV,,09/08/1937,1,-,7.10,17,,14,16,14
2REV,,29/07/1949,1,-,8.22,14,,11,13,10
3REV,,29/05/1950,0,-,,11,12,11,,
4REV,,01/03/1944,1,-,10.25,21,10,13,14,13
5REV,,08/08/1940,0,-,,12,12,11,15,13
6REV,,06/04/1936,0,-,18.12,8,3,7,9,9
7REV,,27/11/1933,0,-,12.59,11,10,6,,
8REV,,05/08/1935,0,-,14.97,,,,,
9REV,,31/07/1946,0,-,13.90,,13,,,
10REV,,02/07/1959,0,-,10.90,15,15,14,14,13
11REV,,12/07/1949,0,-,17.47,12,11,10,10,11
12REV,,29/11/1955,0,-,,,,,,
13REV,,14/02/1947,0,-,12.03,11,13,12,10,12
14REV,,15/10/1953,0,-,9.53,11,11,11,,
15REV,,31/08/1949,1,-,16.91,10,11,11,12,12
16REV,,14/01/1958,0,-,14.84,15,14,13,,13
17REV,,20/06/1943,0,-,18.13,11,9,13,10,10
18REV,,20/09/1943,0,-,8.25,14,13,12,15,16
19REV,,25/11/1939,0,-,13.90,13,12,,,12
20REV,,26/04/1940,0,-,13.59,14,,,,
21REV,,02/01/1945,0,-,9.15,13,11,12,13,14
22REV,,01/02/1951,0,-,11.28,15,9,12,12,11
23REV,,09/10/1948,0,-,-,12,11,12,12,16
24REV,,22/11/1938,0,-,,14,11,15,16,12
25REV,,28/04/1935,0,-,9.62,11,,,,
26REV,,27/06/1953,0,-,,13,12,12,14,12
27REV,,14/08/1947,0,-,,,,,,
28REV,,08/10/1939,0,-,12.60,11,,,15,13
29REV,,06/01/1940,0,-,10.78,,,10,14,11
30REV,,25/02/1939,0,-,6.22,18,14,17,18,14
31REV,,11/04/1953,0,-,,,,,,
32REV,,04/09/1934,0,-,15.25,11,8,9,15,10
33REV,,08/03/1958,0,-,-,11,12,12,12,14
34REV,,22/08/1933,0,-,21.37,7,8,,,7
35REV,,31/08/1943,0,-,,13,,,,
36REV,,15/06/1955,0,-,14.97,10,10,8,13,11
37REV,,13/12/1942,0,-,,,13,11,,
38REV,,17/01/1951,0,-,9.62,15,15,17,,12
39REV,,05/12/1948,0,-,8.15,16,15,16,20,15
40REV,,22/05/1949,0,-,16.69,12,10,12,12,12
41REV,,16/09/1940,0,-,,,,,,
42REV,,07/04/1943,0,-,,,,,,
43REV,,06/04/1937,0,-,15.91,16,11,15,12,
44REV,,08/09/1954,0,-,14.75,15,12,14,13,14
45REV,,04/12/1935,1,-,13.91,13,11,11,13,11
46REV,,05/12/1939,1,-,16.90,,,,9,
47REV,,18/12/1937,1,-,-,8,,,,5
48REV,,10/09/1944,1,-,13.06,13,,13,14,12
49REV,,19/08/1939,0,-,-,14,12,10,11,12
50REV,,10/03/2026,0,-,-,8,7,,,9
51REV,,17/02/1936,0,-,,,,,,
52REV,,07/02/1937,0,-,18.87,,,,,
53REV,,23/08/1948,0,-,13.16,11,11,,11,
54REV,,20/04/1940,0,-,12.59,,12,,,
55REV,,27/01/1939,0,-,,,,,,
56REV,,28/07/1943,0,-,10.94,14,12,14,11,14
57REV,,06/07/1933,0,-,,9,,,,
58REV,,14/03/1949,1,-,12.32,12,11,12,,
59REV,,11/02/1937,1,-,18.22,10,11,7,12,10
60REV,,14/01/1955,0,-,15.81,11,12,14,13,14
61REV,,04/10/1930,0,-,,,,,,
62REV,,22/06/1946,0,-,,10,13,14,15,
63REV,,02/04/1938,0,-,12.03,11,11,12,12,13
64REV,,19/02/1948,1,-,7.94,22,14,16,23,18
65REV,,03/08/1943,1,-,,13,13,12,13,15
66REV,,11/06/1949,1,-,10.56,15,13,14,21,14
67REV,,09/02/1944,1,-,12.69,10,12,12,12,11
68REV,,21/11/1936,1,-,15.31,10,9,,10,10
69REV,,25/01/1936,1,-,13.35,,,,,
70REV,,14/01/1947,1,-,14.96,18,11,13,13,12
71REV,,13/11/1951,0,-,-,15,9,9,11,9
72REV,,11/08/1934,0,-,7.50,17,14,13,19,11
73REV,,03/10/1930,0,-,21.65,6,8,4,,
74REV,,19/06/1933,0,-,,,,,,
75REV,,16/07/1947,0,-,-,11,14,,11,10
76REV,,15/02/2029,0,-,,10,7,8,12,8
77REV,,01/06/1946,0,-,12.09,14,12,,14,13
78REV,,17/10/1954,0,-,11.82,,13,15,21,15
79REV,,09/02/1944,1,-,13.34,14,13,14,9,12
80REV,,06/02/1941,0,-,10.66,,13,14,17,15
81REV,,09/06/1941,0,-,12.72,15,14,14,16,15
82REV,,20/05/1942,0,-,14.84,8,10,,,11
83REV,,23/02/1961,0,-,15.46,14,12,14,14,
84REV,,18/10/1945,0,-,,16,12,,,13
85REV,,19/11/1943,0,-,-,10,,7,11,12
86REV,,04/04/1938,0,-,-,8,8,10,9,
87REV,,29/12/1943,0,-,15.47,,,,,
88REV,,01/06/1948,0,-,17.81,10,10,8,10,11
89REV,,02/07/1939,0,-,11.07,10,12,12,14,11
90REV,,03/03/1942,0,-,12.84,12,9,10,13,9
91REV,,27/04/1947,0,-,-,17,,11,14,12
92REV,,29/07/1934,0,-,-,13,,,,
93REV,,21/12/1945,0,-,-,17,12,11,11,14
94REV,,30/08/1951,0,-,,16,,,,
95REV,,06/03/1939,0,-,,,8,,,
96REV,,18/05/1939,0,-,12.16,11,10,12,14,
97REV,,14/05/1945,0,-,-,14,13,15,12,14
98REV,,02/05/1940,0,-,,15,13,,,
99REV,,25/04/1939,0,-,12.62,11,9,11,11,10
100REV,,02/12/1951,0,-,13.38,15,15,14,16,16
101REV,,30/10/1953,0,-,12.37,12,12,11,12,13
102REV,,26/11/1942,0,-,11.9,9,9,,9,
103REV,,05/10/1949,0,-,8.68,16,13,20,21,15
104REV,,24/09/1942,0,-,-,,,11,12,11
105REV,,03/08/1954,0,-,10.72,15,14,15,14,14
106REV,,20/04/1945,0,-,12.03,14,11,12,14,12
107REV,,25/04/1946,0,-,12.10,17,,,16,14
108REV,,05/03/1951,0,-,14.84,,,,,11
109REV,,05/08/1933,0,-,11.25,16,,15,15,15
110REV,,12/01/1948,0,-,,,,,,
111REV,,14/11/1948,0,-,9.25,14,16,14,20,15
112REV,,20/08/1932,0,-,11.97,12,15,,14,17
113REV,,09/08/1944,0,-,11.93,13,,14,16,14
114REV,,11/06/1943,0,-,12.41,15,12,10,13,11
115REV,,20/12/1947,0,-,10.15,17,,17,20,15
116REV,,18/05/1946,0,-,14.43,11,9,,11,8
117REV,,05/08/1944,0,-,15.56,14,11,,13,13
118REV,,28/10/1946,0,-,13.47,11,9,,10,11
119REV,,10/05/1938,0,-,,,,,,
120REV,,08/04/1947,0,-,16.12,10,9,9,11,11
121REV,,08/05/1951,0,-,19.19,,10,,,9
122REV,,29/04/1954,0,-,,,,,,
123REV,,18/05/1933,1,-,11.91,,,8,9,7
124REV,,05/02/1939,1,-,8.63,14,13,13,,
125REV,,03/12/1948,1,-,12.88,13,,,12,13
126REV,,18/04/1948,1,-,15.15,18,15,17,,16
127REV,,18/12/1943,1,-,13.09,14,14,15,,15
128REV,,06/08/1944,1,-,,,12,,,14
129REV,,18/01/1948,0,-,15.43,16,15,14,14,12
130REV,,19/07/1952,0,-,,,,,,
131REV,,28/02/1950,0,-,12.03,13,,,,14
132REV,,24/08/1958,0,-,13.78,13,12,12,12,10
133REV,,09/05/1949,0,-,,12,13,15,,16
134REV,,16/12/1946,0,-,11.28,14,13,14,,13
135REV,,08/01/1944,1,-,13.91,10,,,11,13
136REV,,30/09/1960,0,-,11.75,12,15,14,14,14
137REV,,05/04/1946,0,-,14.66,10,,10,11,12
138REV,,15/08/1952,0,-,-,10,,9,13,
139REV,,05/06/1942,0,-,15.75,11,6,8,,
140REV,,03/05/1941,0,-,,,,,,
141REV,,05/08/1938,0,-,,,,,,
142REV,,25/05/1943,0,-,9.65,19,14,15,16,17
143REV,,08/09/1936,0,-,14.85,,,,,
144REV,,01/07/1950,0,-,14.94,11,16,14,12,12
145REV,,27/08/1943,0,-,13.03,13,10,9,10,10
146REV,,23/03/1938,0,-,,,,,,
147REV,,14/05/1951,0,-,8.84,13,13,14,14,13
148REV,,06/11/1944,0,-,,,12,12,,10
149REV,,18/12/1948,0,-,,,,,,
150REV,,30/06/1947,0,-,9.63,13,12,14,14,13
151REV,,16/12/1947,1,-,14.63,14,17,17,16,18
152REV,,14/09/1934,1,-,,,,,,
153REV,,17/02/1939,0,-,,6,,,,
154REV,,08/03/1947,0,-,,,,,,
155REV,,14/02/1940,0,-,,,,,,
156REV,,22/07/1948,0,-,14.72,15,12,,,14
157REV,,28/07/1961,0,,,,,,,16
158REV,,10/09/1952,0,,,,,,,14
1MUSC,,23/05/2025,0,-,-,,,,,
2MUSC,,14/04/1947,1,-,-,11,10,,,
3MUSC,,28/02/1948,1,-,-,14,,,,
4MUSC,,23/08/1932,0,-,-,13,,11,11,
5MUSC,,26/06/1952,0,-,-,,,,,
6MUSC,,08/04/1940,0,-,-,16,14,,,
7MUSC,,19/01/1930,1,-,-,,,,,
8MUSC,,21/08/1950,1,-,-,,,,,
9MUSC,,26/02/1951,0,-,-,,11,16,11,
10MUSC,,21/04/1950,0,-,-,10,11,,,
11MUSC,,02/12/1948,0,-,-,,,,,
12MUSC,,07/04/1931,1,-,-,17,14,,,12
13MUSC,,05/08/2023,1,-,-,,,,,
14MUSC,,24/09/1944,0,-,-,,,,,
15MUSC,,29/07/1931,1,-,-,11,10,,14,10
16MUSC,,13/04/1936,0,-,-,,12,,13,
17MUSC,,01/02/1945,1,-,-,13,12,13,12,11
18MUSC,,02/05/1949,1,-,-,,9,9,12,10
19MUSC,,30/09/1932,1,-,-,,,,,
20MUSC,,02/01/1948,1,-,-,11,12,15,12,
21MUSC,,12/06/1949,0,-,-,,,,,
22MUSC,,11/01/52,0,-,-,16,14,17,,
23MUSC,,07/10/48   ,0,-,-,10,6,15,21,13
24MUSC,,05/09/1932,0,-,-,,,,,
25MUSC,,05/08/50  ,0,-,-,17,,,,
26MUSC,,19/04/1947,0,-,-,,12,,,
27MUSC,,24/10/1944,0,-,-,11,11,,,
28MUSC,,14/05/2028,0,-,-,,,,,
29MUSC,,09/11/1957,0,-,-,17,13,,,11
30MUSC,,01/06/1942,1,-,-,,,,,
31MUSC,,25/02/1930,1,-,-,,,,,
32MUSC,,09/08/1943,1,-,-,9,6,,8,5
33MUSC,,15/03/1950,0,-,-,,11,,12,12
34MUSC,,10/04/1930,0,-,-,6,6,,,8
35MUSC,,30/10/1953,0,-,-,,10,,,
36MUSC,,06/08/1958,0,-,-,15,9,9,14,10
37MUSC,,21/07/53  ,0,-,-,13,15,12,13,14
38MUSC,,08/11/1961,0,-,-,,,,,
39MUSC,,16/09/1941,0,-,-,8,7,,7,
40MUSC,,09/09/1954,0,-,-,,,,,
41MUSC,,18/06/1938,1,-,-,11,7,,9,
42MUSC,,01/12/1941,0,-,-,13,10,,,15
43MUSC,,10/03/1949,1,-,-,,8,,10,
44MUSC,,08/02/48   ,0,-,-,9,,,9,11
45MUSC,,25/06/1951,0,-,-,,,,,
46MUSC,,15/11/1945,0,-,-,15,14,,,15
47MUSC,,14/02/1942,0,-,-,16,14,,16,15
48MUSC,,27/03/2029,0,-,-,,5,,7,8
49MUSC,,07/06/2023,1,-,,,,,,
51MUSC,,10/11/1950,0,,,,,,10,12
52MUSC,,02/08/1955,0,,,,,,21,14
53MUSC,,28/07/1951,0,,,,,,9,
1GC,,30/06/1939,1,-,-,,,,,
2GC,,24/02/1931,1,-,-,9,10,10,,12
3GC,,16/10/1942,1,-,-,,,,12,13
4GC,,10/04/1933,0,-,-,,,,,
5GC,,07/06/1930,1,-,-,,,,,
6GC,,19/03/1936,0,-,-,,7,8,9,11
7GC,,19/04/1944,0,-,-,,,,,
8GC,,17/09/2025,1,-,-,9,3,8,,9
9GC,,11/03/1945,1,-,-,,,15,,16
10GC,,29/05/1945,0,-,-,,,,,7
11GC,,01/01/1933,0,-,-,18,,,,
12GC,,26/07/2029,0,-,-,,,,,
13GC,,28/02/1946,0,-,-,14,,,16,
14GC,,21/05/1934,0,-,-,,,,,
15GC,,06/01/1940,0,-,-,,,,,9
16GC,,30/01/1954,0,-,-,,,,,
17GC,,12/12/1943,0,-,-,,,,,
18GC,,22/09/1960,0,-,-,,,,10,
19GC,,20/08/2026,0,-,-,13,10,13,11,
20GC,,20/08/1939,0,-,-,,,10,13,12
21GC,,11/08/2024,0,-,-,10,9,8,10,
22GC,,08/09/1947,0,-,-,,,,,
23GC,,16/04/1954,0,-,-,13,11,,,11
24GC,,10/02/1944,0,-,-,,,,,
25GC,,29/06/1936,0,-,-,,,,,
26GC,,05/08/1932,0,-,-,,,,,
27GC,,31/10/1941,0,-,-,,,9,11,10
28GC,,01/12/1944,0,-,-,9,11,,15,11
29GC,,11/08/1953,0,-,-,13,12,,11,13
30GC,,08/01/1944,0,-,-,14,,,10,
31GC,,29/08/1939,0,-,-,11,13,,,
32GC,,27/03/1949,0,-,-,15,9,,,
33GC,,25/09/1942,0,-,-,10,8,,10,
34GC,,26/07/1938,0,-,-,6,,,,
35GC,,09/04/1947,0,-,-,,5,,7,8
36GC,,13/01/1934,0,-,-,11,9,9,,
37GC,,29/03/1949,0,-,-,,,11,,14
38GC,,18/08/1943,1,-,-,,,,12,
39GC,,16/11/1952,1,-,-,,,,8,
40GC,,24/02/1956,1,-,-,,,11,,12
41GC,,01/06/1937,0,-,-,,,,,
42GC,,27/11/1933,0,-,-,13,9,10,,
43GC,,12/04/1955,0,-,-,14,,11,14,13
44GC,,03/06/1947,0,-,-,,,,,
45GC,,09/05/1931,0,-,-,,,,,
46GC,,14/08/1947,0,-,-,,10,12,,11
47GC,,08/01/1949,0,,,,,,7,
