BIOIMP.Kg,,,,,,,,,,
CODIGO,IDADE,DATA DE NASCIMENTO,SEXO,1ª MEDIDA,2ª MEDIDA,3ª MEDIDA,4ª MEDIDA,5ª MEDIDA,6ª MEDIDA,7ª MEDIDA
,,,,17/03/2014,30/06/2014,08/12/2014,09/03/2015,29/06/2015,30/11/2015,14/03/2016
1 REV,,09/08/1937,1,"12,2","12,5","9,4","12,5","20,2","14,3","15,9"
2 REV,,29/07/1949,1,"18,9","17,5","17,9","17,1","18,5","17,8","16,6"
3 REV,,29/05/1950,0,"22,0",,"26,7","28,4","29,1",,
4 REV,,01/03/1944,1,"22,5","24,0","22,1","1,47","24,40","21,5","23,4"
5 REV,,08/08/1940,0,"33,9",,"37,3","34,6","38,8","35,9","34,4"
6 REV,,06/04/1936,0,"27,6","23,0","26,5","27,1","28,9","26,3","26,4"
7 REV,,27/11/1933,0,,"22,1","23,2","22,1","26,3",,
8 REV,,05/08/1935,0,"21,7","21,2",,,,,
9 REV,,31/07/1946,0,"36,5","36,6",,"36,5",,,
10 REV,,02/07/1959,0,"42,4","43,6","45,1","44,1","43,3","41,6","41,1"
11 REV,,12/07/1949,0,,"20,6","14,3","20,1","21,2","19,8","19,4"
12 REV,,29/11/1955,0,"37,8",,,,,,
13 REV,,14/02/1947,0,"38,2","37,7","38,7","38,6","39,8","40,0","42,0"
14 REV,,15/10/1953,0,"26,7","29,2","30,0","27,1","30,0",,
15 REV,,31/08/1949,1,"16,8","18,7","19,8","20,4","19,8","20,5","17,4"
16 REV,,14/01/1958,0,"19,2","22,0","19,0","19,3","19,7",,"19,5"
17 REV,,20/06/1943,0,"22,2","21,3","23,2","23,4","25,8","24,4","27,5"
18 REV,,20/09/1943,0,"26,0","25,0","26,8","29,1","28,7","24,2","30,5"
19 REV,,25/11/1939,0,"17,8","17,5","17,8","17,3",,,"16,4"
20 REV,,26/04/1940,0,"24,8","26,1","25,5",,,,
21 REV,,02/01/1945,0,"19,7","19,2","19,0","17,8","20,2","16,9","17,6"
22 REV,,01/02/1951,0,"29,4","31,8","30,8","32,5","35,4","31,9","31,1"
23 REV,,09/10/1948,0,,"28,9","30,7","29,3","31,5","32,0","31,7"
24 REV,,22/11/1938,0,"20,9",,"23,3","23,6","22,6","22,8","23,1"
25 REV,,28/04/1935,0,"22,1","23,2","20,6",,,,
26 REV,,27/06/1953,0,,,"22,8","25,8","28,5","26,3","27,1"
27 REV,,14/08/1947,0,,,,,,,
28 REV,,08/10/1939,0,"34,8","35,4","36,5",,,"35,1","34,3"
29 REV,,06/01/1940,0,"24,0","27,4",,,"22,8","25,1","23,2"
30 REV,,25/02/1939,0,"13,9","15,2","16,2","12,9","15,3","15,7","13,3"
31 REV,,11/04/1953,0,"18,1",,,,,,
32 REV,,04/09/1934,0,"20,5","19,6","18,0","17,9","21,6","20,2","21,4"
33 REV,,08/03/1958,0,"24,7","26,3","26,2","27,3","30,2","25,7","25,5"
34 REV,,22/08/1933,0,"19,9","25,3","22,4","21,0",,,"18,7"
35 REV,,31/08/1943,0,,,"39,3",,,,
36 REV,,15/06/1955,0,"17,0","16,9","18,9","19,4","17,6","19,9","17,4"
37 REV,,13/12/1942,0,"38,2",,,"37,8","37,5",,
38 REV,,17/01/1951,0,"32,2","32,8","33,4","33,3","32,8",,"32,6"
39 REV,,05/12/1948,0,"21,4","20,6","22,4","22,3","22,3","20,6","22,0"
40 REV,,22/05/1949,0,"22,3","23,5","23,3","24,9","23,7","24,0","22,9"
41 REV,,16/09/1940,0,,,,,,,
42 REV,,07/04/1943,0,,,,,,,
43 REV,,06/04/1937,0,"30,1","33,1","35,9","33,2","35,6","32,9",
44 REV,,08/09/1954,0,"45,8","45,7","45,6","42,1","40,1","39,1","39,6"
45 REV,,04/12/1935,1,"26,6","29,3","29,0","28,0","27,3","25,5","26,3"
46 REV,,05/12/1939,1,"20,8","23,8",,,,"24,6",
47 REV,,18/12/1937,1,"24,1","25,8","27,7","23,2","33,6",,"19,2"
48 REV,,10/09/1944,1,"26,5","27,2","25,4","26,5","24,1","25,4","25,4"
49 REV,,19/08/1939,0,"18,4","20,1","19,2","18,1","20,6","20,6","20,8"
50 REV,,10/03/2026,0,"20,8","22,4","21,9","21,4",,,"19,5"
51 REV,,17/02/1936,0,,,,,,,
52 REV,,07/02/1937,0,"15,2","22,2",,,,,
53 REV,,23/08/1948,0,"23,9","25,4","25,6","25,4",,"25,8",
54 REV,,20/04/1940,0,"32,6","36,5",,"28,9",,,
55 REV,,27/01/1939,0,,,,,,,
56 REV,,28/07/1943,0,"34,1","36,9","35,4","36,3","35,0","35,0","38,2"
57 REV,,06/07/1933,0,"25,5",,"25,7",,,,
58 REV,,14/03/1949,1,"21,3","22,6","24,1","22,5","24,7",,
59 REV,,11/02/1937,1,"24,2","25,1","26,2","17,6","27,7","26,0","25,2"
60 REV,,14/01/1955,0,"12,8","15,7","19,1","15,4","16,6","19,3","16,9"
61 REV,,04/10/1930,0,,,,,,,
62 REV,,22/06/1946,0,"21,7",,"26,8","25,3","32,6","24,1",
63 REV,,02/04/1938,0,"23,4","26,4","23,4","25,0","28,3","25,4","26,8"
64 REV,,19/02/1948,1,"20,8","20,5","19,4","20,3","19,3","21,9","20,4"
65 REV,,03/08/1943,1,"16,7",,"26,4","18,5","21,3","19,0","20,3"
66 REV,,11/06/1949,1,,"9,6","17,9","12,1","20,2","11,3","14,4"
67 REV,,09/02/1944,1,,"9,4","7,7","6,9","8,8","9,1","6,7"
68 REV,,21/11/1936,1,"29,3","33,8","22,1","33,5",,"31,8","26,6"
69 REV,,25/01/1936,1,"21,5","20,5",,,,,
70 REV,,14/01/1947,1,"16,9","22,3","16,3","21,1","19,6","17,3","18,3"
71 REV,,13/11/1951,0,"26,3","30,1","28,4","35,0","30,9","28,8","29,8"
72 REV,,11/08/1934,0,"20,9","20,1","23,0","21,3","23,7","23,9","23,0"
73 REV,,03/10/1930,0,"33,8","36,4","35,7","34,0","35,0",,"35,6"
74 REV,,19/06/1933,0,,,,,,,
75 REV,,16/07/1947,0,"22,1","23,0","23,1","23,5",,"24,3","23,4"
76 REV,,15/02/2029,0,"22,8",,"24,0","21,2","23,8","23,4","21,8"
77 REV,,01/06/1946,0,"20,6","23,4","23,3","22,0",,"22,0","23,3"
78 REV,,17/10/1954,0,"22,2","21,3",,"21,2","22,0","21,4","24,0"
79 REV,,09/02/1944,1,"29,5","32,8","31,5","32,6","34,0","32,9","31,4"
80 REV,,06/02/1941,0,,"21,6",,,"23,4","29,5","19,4"
81 REV,,09/06/1941,0,"22,0","23,0","22,8","22,3","22,7","23,9","22,3"
82 REV,,20/05/1942,0,"22,0","26,2","25,0","23,7",,,"27,5"
83 REV,,23/02/1961,0,"31,0","30,4","32,8","29,5","30,0","30,9",
84 REV,,18/10/1945,0,"25,2",,"25,0","24,8",,,"22,8"
85 REV,,19/11/1943,0,"14,4","19,5","17,2",,"19,2","18,7","17,8"
86 REV,,04/04/1938,0,"27,7","29,7","27,8","27,8","30,6","27,9",
87 REV,,29/12/1943,0,,"33,0",,,,,
88 REV,,01/06/1948,0,,"26,2","23,9","24,3","24,9","24,2","23,5"
89 REV,,02/07/1939,0,"17,7","18,3","15,9","17,9","18,8","20,0","18,9"
90 REV,,03/03/1942,0,"35,0","33,5","35,1","38,3","35,1","34,3","37,3"
91 REV,,27/04/1947,0,"17,1","18,9","18,0",,"18,8","17,5","18,1"
92 REV,,29/07/1934,0,"15,5","16,2","18,1",,,,
93 REV,,21/12/1945,0,"32,7","34,2","32,2","32,6","34,2","33,3","32,9"
94 REV,,30/08/1951,0,"15,7",,"15,9",,,,
95 REV,,06/03/1939,0,,,,"16,7",,,
96 REV,,18/05/1939,0,"24,3","25,8","26,2","26,4","27,6","26,0",
97 REV,,14/05/1945,0,"17,1","17,5","17,5","17,6","25,2","22,1","19,8"
98 REV,,02/05/1940,0,"38,9",,"39,3","36,6",,,
99 REV,,25/04/1939,0,"26,6","28,7","27,3","27,5","28,8","26,4","26,2"
100 REV,,02/12/1951,0,"42,3","43,6","43,6","42,9","41,5","44,2","42,3"
101 REV,,30/10/1953,0,"29,4","31,3","29,1","31,0","32,9","35,2","33,5"
102 REV,,26/11/1942,0,,"33,9","30,4","33,7",,"35,5",
103 REV,,05/10/1949,0,"15,5","18,0","17,9","15,3","17,1","18,5","17,6"
104 REV,,24/09/1942,0,"35,8","33,6",,,"39,4","42,0","40,9"
105 REV,,03/08/1954,0,"19,8","19,8","19,6","19,2","21,0","18,7","22,7"
106 REV,,20/04/1945,0,"28,1","30,5","28,4","29,2","32,5","29,7","28,7"
107 REV,,25/04/1946,0,"25,1","25,7","24,8","28,0",,"28,9","29,2"
108 REV,,05/03/1951,0,"26,4","28,3",,,,,"29,9"
109 REV,,05/08/1933,0,"18,1","16,9","17,8",,"18,4","18,2","20,5"
110 REV,,12/01/1948,0,"24,0",,,,,,
111 REV,,14/11/1948,0,"29,7","27,5","23,6","25,1","21,7","25,4","25,8"
112 REV,,20/08/1932,0,"31,5","35,4","29,9","29,6",,"29,1","28,2"
113 REV,,09/08/1944,0,"37,9","35,9","33,5","34,2","38,9","35,7","35,3"
114 REV,,11/06/1943,0,"18,4","20,5","19,0","19,1","19,2","19,8","27,5"
115 REV,,20/12/1947,0,"14,2","16,1","17,5",,"22,2","17,1","16,6"
116 REV,,18/05/1946,0,"45,5","45,5","45,0","48,2",,"41,3","41,1"
117 REV,,05/08/1944,0,"24,2","24,6","25,3","25,1",,"25,5","24,3"
118 REV,,28/10/1946,0,"41,6","45,9","45,1","45,6",,"46,6","46,7"
119 REV,,10/05/1938,0,,,,,,,
120 REV,,08/04/1947,0,"21,6","26,8","27,7","26,8","29,2","26,6","28,5"
121 REV,,08/05/1951,0,"32,2","35,8",,"34,5",,,"35,9"
122 REV,,29/04/1954,0,,,,,,,
123 REV,,18/05/1933,1,"24,4","23,4",,,"21,1","17,6","17,4"
124 REV,,05/02/1939,1,"25,8","25,2","29,3","28,4","28,6",,
125 REV,,03/12/1948,1,"43,6","45,6","45,6","45,5",,"45,8","45,9"
126 REV,,18/04/1948,1,"10,5","12,9","13,3","12,1","14,2",,"15,2"
127 REV,,18/12/1943,1,"22,1","22,5","22,4","23,7","25,0",,"22,7"
128 REV,,06/08/1944,1,"17,7",,,"17,1",,,"18,5"
129 REV,,18/01/1948,0,"27,2","20,3","29,3","29,1","29,6","28,8","28,7"
130 REV,,19/07/1952,0,"25,1",,,,,,
131 REV,,28/02/1950,0,"32,4","30,9","30,1",,,,"30,0"
132 REV,,24/08/1958,0,"20,0","12,9","18,9","19,7","21,6","19,3","22,1"
133 REV,,09/05/1949,0,"25,8",,"25,0","25,1","25,8",,"25,7"
134 REV,,16/12/1946,0,"28,5","29,2","28,3","30,7","31,6",,"30,3"
135 REV,,08/01/1944,1,"15,6","16,7","18,1",,,"17,3","16,5"
136 REV,,30/09/1960,0,"42,9","45,5","44,0","43,8","44,0","44,3","43,2"
137 REV,,05/04/1946,0,"22,1","15,5","22,6",,"27,8","24,6","23,8"
138 REV,,15/08/1952,0,"29,3","29,6","28,9",,"31,3","32,5",
139 REV,,05/06/1942,0,"18,4","19,1","17,9","15,9","16,0",,
140 REV,,03/05/1941,0,"22,1",,,,,,
141 REV,,05/08/1938,0,,,,,,,
142 REV,,25/05/1943,0,"21,1",-,"23,2","24,5","25,8","23,2","23,4"
143 REV,,08/09/1936,0,"19,9","22,5",,,,,
144 REV,,01/07/1950,0,"27,0","28,3","25,80","25,8","28,1","28,5","28,1"
145 REV,,27/08/1943,0,"22,9","23,4","25,5","23,3","24,8","22,1","21,9"
146 REV,,23/03/1938,0,"26,7",,,,,,
147 REV,,14/05/1951,0,"17,5","19,3","18,7","18,8","16,7","17,9","15,7"
148 REV,,06/11/1944,0,"29,6",,,"26,4","31,0",,"30,6"
149 REV,,18/12/1948,0,,,,,,,
150 REV,,30/06/1947,0,"18,6","20,1","25,5","26,0","25,9","22,1","26,2"
151 REV,,16/12/1947,1,"21,1","25,4","23,3","21,8","30,9","24,0","23,5"
152 REV,,14/09/1934,1,"22,1",,,,,,
153 REV,,17/02/1939,0,,,"26,0",,,,
154 REV,,08/03/1947,0,,,,,,,
155 REV,,14/02/1940,0,,,,,,,
156 REV,,22/07/1948,0,"19,5","20,8","22,9","20,3",,,"21,2"
157 REV,,28/07/1961,0,"24,8",,,,,,"22,0"
158 REV,,10/09/1952,0,,,,,,,"31,7"
1 MUSC,,23/05/2025,0,,,,,,,
2 MUSC,,14/04/1947,1,"15,7","15,7","14,6","14,9",,,
3 MUSC,,28/02/1948,1,"33,8",,"34,5",,,,
4 MUSC,,23/08/1932,0,,"31,4","33,9",,"30,4","33,8",
5 MUSC,,26/06/1952,0,,,,,,,
6 MUSC,,08/04/1940,0,"26,1",,"28,7","26,3",,,
7 MUSC,,19/01/1930,1,,,,,,,
8 MUSC,,21/08/1950,1,,,,,,,
9 MUSC,,26/02/1951,0,,"32,3",,"30,1","30,3","29,7",
10 MUSC,,21/04/1950,0,"16,9","19,5","18,5","17,8",,,
11 MUSC,,02/12/1948,0,"31,0",,,,,,
12 MUSC,,07/04/1931,1,"21,9","26,8","24,6","23,0",,,"24,4"
13 MUSC,,05/08/2023,1,"16,5","20,0",,,,,
14 MUSC,,24/09/1944,0,"42,0",,,,,,
15 MUSC,,29/07/1931,1,"29,2","32,7","30,1","29,6",,"29,6","29,9"
16 MUSC,,13/04/1936,0,"28,6","29,0","28,9","28,9",,"27,9","28,7"
17 MUSC,,01/02/1945,1,,"14,4","13,2","13,6",13,"11,8","15,7"
18 MUSC,,02/05/1949,1,,"13,5",,"12,9","15,8","14,3","14,6"
19 MUSC,,30/09/1932,1,,,,,,,
20 MUSC,,02/01/1948,1,"20,8","22,1","23,8","23,5","23,8","20,4",
21 MUSC,,12/06/1949,0,"32,6",,,,,,
22 MUSC,,   11/01/52,0,,,"30,1","29,7","31,7",,
23 MUSC,,07/10/48   ,0,"25,6","30,5","30,1","26,3","27,7","28,8","26,6"
24 MUSC,,05/09/1932,0,"34,1","36,0",,,,,
25 MUSC,,05/08/50  ,0,"22,1",,"20,8",,,,
26 MUSC,,19/04/1947,0,"22,6","26,0",,"24,9",,,
27 MUSC,,24/10/1944,0,"28,6",,"30,2","28,4",,,
28 MUSC,,14/05/2028,0,"21,8","22,1",,,,,
29 MUSC,,09/11/1957,0,"24,3","25,5","25,7","25,5",,,"25,3"
30 MUSC,,01/06/1942,1,"22,1","31,1",,,,,
31 MUSC,,25/02/1930,1,"21,7",,,,,,
32 MUSC,,09/08/1943,1,"27,8","27,3","28,1","31,5",,"37,7","27,4"
33 MUSC,,15/03/1950,0,"27,8","30,1",,"27,9",,"27,2","28,2"
34 MUSC,,10/04/1930,0,,"36,8","37,7","37,2",,,"39,6"
35 MUSC,,30/10/1953,0,"21,1","21,3",,"24,7",,,
36 MUSC,,06/08/1958,0,"24,7","25,6","25,3","26,0","24,6","25,8","23,5"
37 MUSC,,21/07/53  ,0,"20,7","21,9","22,0","21,5","23,5","22,4","21,5"
38 MUSC,,08/11/1961,0,,,,,,,
39 MUSC,,16/09/1941,0,"38,8","32,5","32,0","31,6",,,
40 MUSC,,09/09/1954,0,"30,8","31,8",,,,,
41 MUSC,,18/06/1938,1,"23,1","26,5","22,5","21,2",,"20,0",
42 MUSC,,01/12/1941,0,"33,7",,"34,9","34,8",,,"31,2"
43 MUSC,,10/03/1949,1,,"22,8",,"21,2",,"22,4",
44 MUSC,,08/02/48   ,0,"27,4","28,4",,,,"29,0","28,8"
45 MUSC,,25/06/1951,0,"17,5",,,,,,
46 MUSC,,15/11/1945,0,"32,1","33,2","31,5","28,8",,,"32,5"
47 MUSC,,14/02/1942,0,"31,8","35,4","37,5","32,1",,"35,5","34,0"
48 MUSC,,27/03/2029,0,"18,3","16,1",,,,"19,0","20,1"
49 MUSC,,07/06/2023,1,"20,0",-,,,,,
51 MUSC,,10/11/1950,0,,,,,,"21,4","22,0"
52 MUSC,,02/08/1955,0,,,,,,"23,5","22,7"
53 MUSC,,28/07/1951,0,,,,,,"30,6",
1 GC,,30/06/1939,1,,,,,,,
2 GC,,24/02/1931,1,"19,4","19,6","18,3","25,6","18,7",,"18,9"
3 GC,,16/10/1942,1,"17,4","17,4",,,,"26,8","25,8"
4 GC,,10/04/1933,0,,,,,,,
5 GC,,07/06/1930,1,,,,,,,
6 GC,,19/03/1936,0,,,,"28,9","29,0","25,9","28,2"
7 GC,,19/04/1944,0,"21,3","21,3",,,,,
8 GC,,17/09/2025,1,,"14,9","16,0","14,2","13,7",,
9 GC,,11/03/1945,1,"18,0","19,0",,,"19,4",,"19,4"
10 GC,,29/05/1945,0,"17,2",,,,,,"16,4"
11 GC,,01/01/1933,0,,,"17,0",,,,
12 GC,,26/07/2029,0,,,,,,,
13 GC,,28/02/1946,0,"22,0","20,0","19,6",,,"19,9",
14 GC,,21/05/1934,0,,,,,,,
15 GC,,06/01/1940,0,"18,7",,,,,,"17,9"
16 GC,,30/01/1954,0,,,,,,,
17 GC,,12/12/1943,0,,,,,,,
18 GC,,22/09/1960,0,,,,,,"18,4",
19 GC,,20/08/2026,0,,"21,9","20,0","19,9","22,1","21,6",
20 GC,,20/08/1939,0,"22,1","22,1",,,"25,0","22,1","20,8"
21 GC,,11/08/2024,0,"27,9","27,4","29,1","26,6","28,8","27,4",
22 GC,,08/09/1947,0,,,,,,,
23 GC,,16/04/1954,0,,,"17,9","19,2",,,"18,7"
24 GC,,10/02/1944,0,,,,,,,
25 GC,,29/06/1936,0,,,,,,,
26 GC,,05/08/1932,0,,,,,,,
27 GC,,31/10/1941,0,"25,6","26,4",,,"27,5","28,6","29,6"
28 GC,,01/12/1944,0,"15,6","22,0","15,8","14,3",,"17,4","14,6"
29 GC,,11/08/1953,0,"38,0","37,2","35,8","36,5",,"36,0","38,3"
30 GC,,08/01/1944,0,"25,9",,"24,2",,,"28,1",
31 GC,,29/08/1939,0,,"19,1","24,3","18,1",,,
32 GC,,27/03/1949,0,"19,7","21,2","20,0","20,9",,,
33 GC,,25/09/1942,0,,"18,9","20,0","22,2",,,
34 GC,,26/07/1938,0,,"34,4","35,6","30,5","35,4",,
35 GC,,09/04/1947,0,"34,6","40,0",,"33,7",,"39,4","35,6"
36 GC,,13/01/1934,0,,"27,5","22,7","24,8","29,0",,
37 GC,,29/03/1949,0,"36,8",,,,"40,1",,"37,3"
38 GC,,18/08/1943,1,,"31,3",,,,"30,0",
39 GC,,16/11/1952,1,,,,,,"21,3",
40 GC,,24/02/1956,1,,"32,3",,,"30,5",,"33,2"
41 GC,,01/06/1937,0,,,,,,,
42 GC,,27/11/1933,0,"18,7",,"20,3","18,9","28,2",,
43 GC,,12/04/1955,0,"26,8","26,7",,,"28,6","28,6","26,4"
44 GC,,03/06/1947,0,,,,,,,
45 GC,,09/05/1931,0,,,,,,,
46 GC,,14/08/1947,0,"33,8",,,"35,4","37,8",,"32,4"
47 GC,,08/01/1949,0,,,,,,"29,7",
