,
CODIGO,NOME
,
1 REV,ADEMAR JOSÉ TREVISAN
2 REV,ADILSON DE OLIVEIRA
3 REV,AGUIDA CELINA DE MÉO BARREIRO(FALECEU)
4 REV,AKIKO SUGUI
5 REV,ALICE MORAES DE ANGELIS
6 REV,ALZIRA DA COSTA PEREIRA
7 REV,AMÉLIA CAVALARO BRIGANO
8 REV,AMÉLIA MARIA CAMPOS(ABANDOMOU)
9 REV,ANA MARIA DE ONOFRE
10 REV,ANA MARIA FERRARI ALVES
11 REV,ANA RITA MICHELAZZO SAGAWA
12 REV,ANE ROSE GALDINO PANDOLFELLI(ABANDOMOU)
13 REV,ANTONIA APARECIDA SPAZIANI PICCIN
14 REV,ANTÔNIA HELENA MORAES DESTRO
15 REV,ANTONIO AUGUSTO BAIO
16 REV,APARECIDA DE FÁTIMA MARLETA MATAS
17 REV,APARECIDA DE MORAES RIBEIRO RAMIREZ
18 REV,APARECIDA YOSHICA DOI
19 REV,ARACY DAL RI MASSARI  
20 REV,ÁUREA GUIMARAES SOUZA ESTEVAM
21 REV,BEATRIZ GUIMARÃES
22 REV,BENEDITA APARECIDA DE OLIVEIRA
23 REV,CARMEM  S. MARTINS SYPRIANI
24 REV,CECÍLIA DOS SANTOS SILVA
25 REV,CELIA   LUIZA DE SANTIS
26 REV,CÉLIA SORIANO
27 REV,CLAUDETE APARECIDA ROCHA PENA(PASSOU PARA O GRUPO CONTROLE)
28 REV,CLEIDE APARECIDA TOBIAS SANTINI
29 REV,CLÉLIA MARIÂNGELA MIRABELLI MARCHESONI
30 REV,CLEONICE GALESCO TREVISAN
31 REV,CLEUVINA BARONI MARTINS DE OLIVEIRA(ABANDOMOU)
32 REV,CONCHETA GIANOTE ROSSI
33 REV,CRISTINA APARECIDA DONATO PICON
34 REV,DALVA BARTOLUCCI
35 REV,DARCI GARCIA DANTAS
36 REV,DIRCE TAVARES SAMBUDIO
37 REV,DIVA MARCHI CAVALHEIRO
38 REV,DULCINÉA HELENA FRAGALE BAIO
39 REV,DULCINÉIA FERREIRA LAVELLI
40 REV,ELIZABETH GOMES DA COSTA
41 REV,ENILDE VANUCCI CASEMIRO
42 REV,EPIFÃNIA FERREIRA DO NASCIMENTO
43 REV,ESTER ROSA DE TOLEDO FORNAZARI
44 REV,FÁTIMA APARECIDA DE RISSO
45 REV,FERNANDO DE ANGELIS NETTO
46 REV,GERALDO BRAGA
47 REV,GERALDO MASSARI
48 REV,GILNEI ANTONIO MONTANARO
49 REV,GLÓRIA MARIA FANTATO BLANCO
50 REV,GRACIA SANTA SANDO LEMOS
51 REV,HELOISA DE MATOS VAZ
52 REV,HERMELINDA PICCIN ANDREOTTI(ABANDOMOU)
53 REV,IDA MAURA PRATA
54 REV,IDALINA CAMARGO SANTOS
55 REV,IGNEZ ESCOBAN BALDAN
56 REV,INÊS ZANINETTI SANTANA
57 REV,IONI MILLER CALISSI
58 REV,IRANI STEFANE ASSENHA
59 REV,IRIVALDO ANTONIO GOBATO
60 REV,JACI MAYOR SILVEIRA
61 REV,JACYRA SPAZIANE DAL RI
62 REV,JANDIRA LUCIA LUCHESI NICIURA
63 REV,JARDEMIRA BIANCO ZANOTO
64 REV,JOÃO BOSCO CORDEIRO 
65 REV,JOÃO CARLOS BARREIRO
66 REV,JORGE OKADA
67 REV,JORGE SHOJI SAGAWA
68 REV,JOSÉ  CARLOS CASELLA
69 REV,JOSÉ ALCIDES SANTOS(ABANDOMOU)
70 REV,JOSÉ DIVINO
71 REV,JURACI  APARECIDA ROCHA
72 REV,JURACY APPARECIDA TASSINARI VIEIRA
73 REV,LAILA HADDAD 
74 REV,LÉA BAUB MANZINI
75 REV,LEDA MARIA LUCIANO CARMASSI
76 REV,LOURDES GANCI POLATO
77 REV,LUCIA CESARINO VARGAS 
78 REV,LUCIA HELENA CASELLA RIDAS DOS SANTOS
79 REV,LUIZ CARLOS PEPPINO
80 REV,MAGDALENA MARTINS MIRON
81 REV,MARGARIDA  CASELLA PORTO
82 REV,MARIA ANGELICA FINACCI
83 REV,MARIA AP.  RODRIGUES CANEVAROLLO
84 REV,MARIA APARECIDA B. FERREIRA
85 REV,MARIA APARECIDA FERREIRA ROSSINI
86 REV,MARIA APARECIDA LEAL
87 REV,MARIA APARECIDA LOPES TREVISANI(ABANDOMOU)
88 REV,MARIA APARECIDA MANCINI ROMERO 
89 REV,MARIA APARECIDA MARQUES NONATO
90 REV,MARIA APARECIDA S. FIGUEIREDO SANTOS
91 REV,MARIA CECILIA VILLANI PURQUERIO
92 REV,MARIA DE LOURDES ANELLI
93 REV,MARIA DE LOURDES CAMARGO PEPPINO
94 REV,MARIA DE LOURDES DOS SANTOS
95 REV,MARIA DO CARMO DOS SANTOS
96 REV,MARIA DO CARMO RIBEIRO SODRÉ
97 REV,MARIA ELISA CREPALDI
98 REV,MARIA ELISA MORAES DE OLIVEIRA
99 REV,MARIA HELENA PAULINO CASELLA
100 REV,MARIA JOSÉ BUZUTTI
101 REV,MARIA JOSÉ RODRIGUES SORIANO
102 REV,MARIA LUIZA CASELLA SILVA  
103 REV,MARIA MATILDE NEGRÃO
104 REV,MARIA MERCEDES CREPALDI ROSSINI
105 REV,MARIA RACHEL FRAGALE
106 REV,MARIA SILVIA SALTARELLI MONTANARO
107 REV,MARIA TAMAKI OKADA
108 REV,MARILDA ELISABETH STEFANE MORETTI  
109 REV,MÁRIO KEIHU SUCOMINE
110 REV,MARISA TROMBINI MACHADO(ABANDOMOU)
111 REV,MARLY TEREZA COLAGROSSI FOSCHINI
112 REV,MATILDES BATISTA ZABEU
113 REV,MEHRANGIZ NORANI
114 REV,MIKIO SUGUI
115 REV,MIYAKO NAGATOMO
116 REV,NADIR APARECIDA MASSARI PEDRAZZI  
117 REV,NAIR MIWAKO KOHATSU SUCOMINE
118 REV,NATALIA GARCIA HOLMO  
119 REV,NEIDE SPAZIANE ROSSI
120 REV,NELSI ELIZABETE BOSSOLAN
121 REV,NEUSA MARIA PORTO ALBERTINI(FALECEU)
122 REV,NEUZA MARIA MICHELETTI DE MEDEIROS
123 REV,OSWALDO GOMES DA SILVA
124 REV,PAULO ALVES PEREIRA
125 REV,PAULO DE MEO(FALECEU)
126 REV,PAULO SÉRGIO SILVEIRA
127 REV,PEDRO LUIZ MÉO
128 REV,PERICLES FERREIRA
129 REV,REGINA CÉLIA ZANINETTI DE MEO
130 REV,REGINA ELIZABETH FAVORETTI SIMÕES(FALECEU)
131 REV,REGINA SONIA MILANETTO CHINAGLIA
132 REV,RUTE APARECIDA DE BRITO ASENHA PREDIGER
133 REV,RUTH MARIA TAMBELLIN
134 REV,SANDRA AZZI CÉSAR
135 REV,SEVERINO ANTUNES LOPES
136 REV,SONIA REGINA PEREZ  D’ONOFRIO
137 REV,TERCILIA GAZIRO PEREZ
138 REV,TEREZA LEITE FARIA SOUZA
139 REV,TEREZINHA MERCIA PAULINHO MARTINEZ
140 REV,THEREZA JESUINO DA SILVA(ABANDOMOU)
141 REV,THEREZINHA YOLANDA B. COSCIA
142 REV,TOMICO TOMA DE MEO (f)
143 REV,TOSHIKO SAKIHAMA VENTURA(ABANDOMOU)
144 REV,VANIR TIRAPELI PARANHOS
145 REV,VERA APARECIDA DORSA PERIOTTO
146 REV,VERA LOURENÇÃO(ABANDOMOU)
147 REV,VERA LUCIA BALLAN ZIN
148 REV,VERA LUCIA BARRIONOVO MÉO
149 REV,VERA LUCIA HELLMEISTER FABRI
150 REV,VERA LUCIA MELO CHIAVINI
151 REV,VIDÍCIO DA SILVA PARANHOS
152 REV,VIRGILIO LUIZ SYPRYANI(ABANDOMOU)
153 REV,VIRLEY DORSA
154 REV,YOLANDA BARIONI
155 REV,YOLANDA DE TOMAZO RUGIERO
156 REV,ZÉLIA TERESINHA FINACCI MARTINS
157 REV,MARIA MAZZARELLO DA FONSECA
158 REV,LÍLIA MARIA SOARES MARMORATO
159REV,ELZA DIAS
1 MUSC,AMABILE BENEDETI DA COSTA(ABANDOMOU)
2 MUSC,ANDRÉ COLETTI ABANDONOU
3 MUSC,ANTONIO ONÉSIO ACIARI ABANDONOU
4 MUSC,APARECIDA TORDIN FASSINA
5 MUSC,BEATRIZ CAPARROZ DE OLIVEIRA PADUA ABANDONOU
6 MUSC,BENEDICTA PECCINI  ZAMPIERI ABANDONOU
7 MUSC,BENEDITO PERSEGUINO(ABANDOMOU)
8 MUSC,CARLOS LOPES DE OLIVEIRA ABANDONOU
9 MUSC,DORMÉLIA PEREIRA CAZELLA
10 MUSC,ELZA MARIA LOURENÇO UBEDA ABANDONOU
11 MUSC,EVA GONÇALVES PINHEIRO(ABANDOMOU)
12 MUSC,FRANCISCO ANDREOSSI
13 MUSC,FRANCISCO MARTINS BRANCO ABANDOMOU)
14 MUSC,GERALDA CAMPIDELLI(ABANDOMOU)
15 MUSC,GERALDO FABRÍCIO
16 MUSC,JANDIRA FIORAVANTI
17 MUSC,JOSÉ INÁCIO BERTANHA
18 MUSC,JOSÉ ORLANDO DE OLIVEIRA PADUA
19 MUSC,JOSÉ RAIMUNDO ABANDONUOU
20 MUSC,JOSÉ RAMOS PAULO
21 MUSC,LEDA MARIA DE SOUZA GOMES ABANDONOU
22 MUSC,MARIA APARECIDA DE LOURDES GOMES BUCHUVIESER 
23 MUSC,MARIA APARECIDA LEONARDO KAPP
24 MUSC,MARIA APARECIDA PIRES FERREIRA(ABANDOMOU)
25 MUSC,MARIA BEATRIZ ACIARI ABANDOMOU)
26 MUSC,MARIA EUNICE LOPES BATTISSACCO ABANDOMOU)
27 MUSC,MARIA IVONE BARBOSA 
28 MUSC,MARIA LUIZA SANTA CRUZ DO NASCIMENTO ABANDONOU
29 MUSC,MARIA VICTÓRIA AMARAL REIS LIMA ABANDONOU
30 MUSC,NILVA AP. BOMTEMPI ANDREOSSI ABANDOMOU)
31 MUSC,PASCHOAL CARRIERI NETO(ABANDOMOU)
32 MUSC,PEDRO ROBERTO CAVASIN(ABANDOMOU)
33 MUSC,RONALDO DA SILVA
34 MUSC,ROSA MARIA GONÇALVES CASTELANO 
35 MUSC,ROSALINA MENDES
36 MUSC,SÔNIA APARECIDA FIGUEIREDO LOPES
37 MUSC,TEREZA DE BARROS
38 MUSC,TIRZA SALGUERO ALIBERTI(ABANDOMOU)
39 MUSC,VALENTINA DE LOURDES CENTANIN MARTINS ABANDONOU
40 MUSC,VERA LUCIA APARECIDA PEREIRA ABANDONOU
41 MUSC,VICENTE DE PAULA MARTINS ABANDONOU
42 MUSC,VILMA MILANEZ 
43 MUSC,WALTER C. SEGALLA TALAVERA
44 MUSC,ZULEICA RUSSO DA SILVA
45 MUSC,CLAUDETE MARIA RAPELLI DI FRANCISCO ABANDONOU
46 MUSC,JURACI LOPES PEDRINO ABANDOMOU)
47 MUSC,MARIA APARECIDA CARDOSO VASCONCELOS ABANDOMOU)
48 MUSC,SATIE NAGANO INAMASSU 
49 MUSC,YOSHINARI INAMASSU FALECEU
51 MUSC,MARIA EUNICE LOPES BATTISSACCO ABANDOMOU)
52 MUSC,NÉDINA SILVA BATTISSACCO
53 MUSC,SILÉZIA FERRAZ ISABEL ABANDONOU
1 GC,AGENOR DE ARAUJO
2 GC,ALEXANDRE ZUCOLOTTO
3 GC,ALFREDO PEREZ
4 GC,ALICE HONÓRIO GARCIA
5 GC,ALOISIO DE CAMARGO(ABANDOMOU)
6 GC,ALZIRA CIPRIAN DO NASCIMENTO
7 GC,ANA MARIA FERRO CORREA
8 GC,ANTONIO ZUCOLOTTO 
9 GC,AUGUSTO GRANDE
10 GC,BREVINA DE FIGUEIREDO LEAL
11 GC,BRUNINA SALATINO DA SILVA
12 GC,CELINA STAMATO(ABANDOMOU)
13 GC,DALVA LIMA DE OLIVEIRA LEGORO
14 GC,DINALVA  NOGUEIRA COSTILHO
15 GC,DURVALINA PEREZ DIAS
16 GC,ELISETE SILVA PEDRAZZANI(ABANDOMOU)
17 GC,ELZA PEDRUSSELI MARINI(ABANDOMOU)
18 GC,ERICA YANG
19 GC,FANNY QUAGLIO
20 GC,HELENA NÉO BOLIGNANI
21 GC,HERCÍLIA GARGLIADO NASCISO
22 GC,INÊS APARECIDA DE OLIVEIRA
23 GC,IVANILDE JOSEFINA P. ZUZZI
24 GC,JAIRA VIDAL
25 GC,LEILA PAIVA DO VAZ
27 GC,LUCILIA BOGAS BRUNO
28 GC,LUIZA HARUE ZAHA NAKAMURA
29 GC,MARGARIDA MARIA S. PEREZ
30 GC,MARIA APARECIDA CARNEIRO
31 GC,MARIA ELISABETH SALATINO
32 GC,MARIA GORETTI LINARES VIEIRA
33 GC,MARIA MADALENA M. DE LIMA
34 GC,MARLENE DIONISIO ESCARAMUSSA
35 GC,NADIR BATISTA FERREIRA CONCEIÇÃO
36 GC,ODILA DOS SANTOS DE AGUIAR
37 GC,OSVALDO ALVES DE CALDAS
38 GC,OSVALDO LABADESSA
39 GC,PAULO OLIVEIRA
41 GC,ROSARIA S. MACHADO ABANDOMOU)
42 GC,SEBASTIANA CAVALLARO SANTINON
43 GC,TEREZINHA DE NUZZI PILA
44 GC,VALDEMIR SIABE ABANDOMOU)
46 GC,CLAUDETE APARECIDA ROCHA PENA
47 GC,MARIA APARECIDA DA SILVA
