EQUIL. EST. P.E.A.,,,,,,,,,,
CODIGO,IDADE,DATA DE NASCIMENTO,SEXO,1ª MEDIDA,2ª MEDIDA,3ª MEDIDA,4ª MEDIDA,5ª MEDIDA,6ª MEDIDA,7ª MEDIDA
,,,,17/03/2014,30/06/2014,08/12/2014,09/03/2015,29/06/2015,30/11/2015,14/03/2016
1 REV,,09/08/1937,1,30,30,30,30,30,30,30
2 REV,,29/07/1949,1,30,30,30,30,30,30,30
3 REV,,29/05/1950,0,30,,30,30,30,,
4 REV,,01/03/1944,1,30,30,30,30,30,30,22
5 REV,,08/08/1940,0,"19,10",,30,30,30,23,12
6 REV,,06/04/1936,0,"10,69",8,"6,44","6,75",4,9,"1,9"
7 REV,,27/11/1933,0,,"10,56",5,4,12,,
8 REV,,05/08/1935,0,"12,03","22,03",,,,,
9 REV,,31/07/1946,0,-,-,,30,,,
10 REV,,02/07/1959,0,30,30,30,30,30,30,30
11 REV,,12/07/1949,0,,30,30,30,30,30,30
12 REV,,29/11/1955,0,30,,,,,,
13 REV,,14/02/1947,0,30,30,30,30,30,30,30
14 REV,,15/10/1953,0,30,30,30,30,30,,
15 REV,,31/08/1949,1,30,30,30,30,30,30,29
16 REV,,14/01/1958,0,30,30,30,30,30,,30
17 REV,,20/06/1943,0,30,17,30,23,15,30,30
18 REV,,20/09/1943,0,30,30,30,30,30,30,30
19 REV,,25/11/1939,0,"25,97",30,30,30,,,27
20 REV,,26/04/1940,0,30,30,30,,,,
21 REV,,02/01/1945,0,30,30,30,30,30,23,7
22 REV,,01/02/1951,0,"17,99",30,30,30,30,30,30
23 REV,,09/10/1948,0,,30,19,"8,37","9,6",18,13
24 REV,,22/11/1938,0,30,,30,30,30,30,30
25 REV,,28/04/1935,0,30,30,30,,,,
26 REV,,27/06/1953,0,,,30,30,30,30,30
27 REV,,14/08/1947,0,,,,,,,
28 REV,,08/10/1939,0,"13,31","13,59",,,,6,4
29 REV,,06/01/1940,0,28,"16,68",,,"21,29",11,13
30 REV,,25/02/1939,0,30,30,30,30,30,30,30
31 REV,,11/04/1953,0,30,,,,,,
32 REV,,04/09/1934,0,"22,47",22,"15,81",30,13,25,20
33 REV,,08/03/1958,0,30,30,30,30,30,30,30
34 REV,,22/08/1933,0,11,16,,7,,,3
35 REV,,31/08/1943,0,,,30,,,,
36 REV,,15/06/1955,0,30,30,30,30,30,30,30
37 REV,,13/12/1942,0,"12,57",,,30,3,,
38 REV,,17/01/1951,0,30,30,30,30,30,,30
39 REV,,05/12/1948,0,30,30,30,30,30,30,30
40 REV,,22/05/1949,0,30,30,30,30,30,30,30
41 REV,,16/09/1940,0,,,,,,,
42 REV,,07/04/1943,0,,,,,,,
43 REV,,06/04/1937,0,"9,91","6,81",4,"3,23",4,5,
44 REV,,08/09/1954,0,30,30,30,30,30,30,30
45 REV,,04/12/1935,1,30,30,30,30,30,30,30
46 REV,,05/12/1939,1,"6,88",4,,,,8,
47 REV,,18/12/1937,1,30,30,30,30,,,30
48 REV,,10/09/1944,1,30,19,30,30,30,30,"20,32"
49 REV,,19/08/1939,0,"26,35",30,30,19,30,30,30
50 REV,,10/03/2026,0,30,30,30,30,,,20
51 REV,,17/02/1936,0,,,,,,,
52 REV,,07/02/1937,0,"5,9","12,9",,,,,
53 REV,,23/08/1948,0,30,30,30,30,,30,
54 REV,,20/04/1940,0,"2,63","4,44",,"4,23",,,
55 REV,,27/01/1939,0,,,,,,,
56 REV,,28/07/1943,0,30,30,30,30,30,30,30
57 REV,,06/07/1933,0,"5,5",,11,,,,
58 REV,,14/03/1949,1,30,30,30,30,30,,
59 REV,,11/02/1937,1,"13,97",6,"7,5",18,"7,51",4,"6,48"
60 REV,,14/01/1955,0,30,30,30,30,30,30,30
61 REV,,04/10/1930,0,,,,,,,
62 REV,,22/06/1946,0,30,,30,30,30,30,
63 REV,,02/04/1938,0,30,30,30,30,30,30,24
64 REV,,19/02/1948,1,30,30,30,30,30,30,14
65 REV,,03/08/1943,1,30,,30,30,30,30,30
66 REV,,11/06/1949,1,,30,30,30,30,30,30
67 REV,,09/02/1944,1,,"2,35",9,"13,5",23,18,8
68 REV,,21/11/1936,1,30,30,30,30,,30,30
69 REV,,25/01/1936,1,30,30,,,,,
70 REV,,14/01/1947,1,30,30,30,30,30,30,30
71 REV,,13/11/1951,0,30,30,30,30,30,30,30
72 REV,,11/08/1934,0,"20,16",30,"23,8",19,"29,18",30,16
73 REV,,03/10/1930,0,"2,65",6,"3,13","4,65",6,,3
74 REV,,19/06/1933,0,,,,,,,
75 REV,,16/07/1947,0,30,30,30,30,,30,28
76 REV,,15/02/2029,0,"8,96",,"20,03","8,00",17,10,30
77 REV,,01/06/1946,0,30,30,30,30,,30,30
78 REV,,17/10/1954,0,30,30,,30,30,30,30
79 REV,,09/02/1944,1,30,30,26,30,30,30,24
80 REV,,06/02/1941,0,,30,,30,30,30,30
81 REV,,09/06/1941,0,30,30,30,30,30,30,30
82 REV,,20/05/1942,0,30,30,30,30,,,30
83 REV,,23/02/1961,0,30,30,30,30,30,30,
84 REV,,18/10/1945,0,30,,30,30,,,30
85 REV,,19/11/1943,0,30,5,"8,78",,"14,47",30,30
86 REV,,04/04/1938,0,"10,38",5,"5,10","4,00",5,"3,39",
87 REV,,29/12/1943,0,,30,,,,,
88 REV,,01/06/1948,0,,30,29,"26,11",30,30,30
89 REV,,02/07/1939,0,30,30,30,30,30,30,30
90 REV,,03/03/1942,0,"16,72",5,"8,59",3,"8,76",6,6
91 REV,,27/04/1947,0,30,30,30,,30,30,30
92 REV,,29/07/1934,0,30,30,20,,,,
93 REV,,21/12/1945,0,30,30,30,30,30,30,30
94 REV,,30/08/1951,0,30,,30,,,,
95 REV,,06/03/1939,0,,,,30,,,
96 REV,,18/05/1939,0,"21,31",7,"22,66",30,,19,
97 REV,,14/05/1945,0,30,30,30,30,30,30,30
98 REV,,02/05/1940,0,6,,11,"9,87",,,
99 REV,,25/04/1939,0,30,30,30,30,30,30,30
100 REV,,02/12/1951,0,30,30,30,30,30,30,30
101 REV,,30/10/1953,0,30,30,30,30,30,30,30
102 REV,,26/11/1942,0,,"21,62","8,64",12,,3,
103 REV,,05/10/1949,0,30,30,30,30,30,30,30
104 REV,,24/09/1942,0,30,25,,,"21,97","8,38",18
105 REV,,03/08/1954,0,30,30,30,30,30,30,30
106 REV,,20/04/1945,0,30,30,30,30,30,30,30
107 REV,,25/04/1946,0,30,30,30,30,,30,30
108 REV,,05/03/1951,0,30,30,,,,,30
109 REV,,05/08/1933,0,30,30,30,,30,22,20
110 REV,,12/01/1948,0,30,,,,,,
111 REV,,14/11/1948,0,30,30,30,30,30,30,30
112 REV,,20/08/1932,0,"24,8",22,30,28,,30,28
113 REV,,09/08/1944,0,"9,65",7,"5,43",6,"12,5","12,97",13
114 REV,,11/06/1943,0,30,30,30,30,30,30,30
115 REV,,20/12/1947,0,30,30,30,,30,30,30
116 REV,,18/05/1946,0,30,30,30,30,,30,30
117 REV,,05/08/1944,0,30,30,30,30,,30,30
118 REV,,28/10/1946,0,30,23,30,30,,30,30
119 REV,,10/05/1938,0,,,,,,,
120 REV,,08/04/1947,0,30,30,30,30,30,30,30
121 REV,,08/05/1951,0,30,30,,30,,,30
122 REV,,29/04/1954,0,,,,,,,
123 REV,,18/05/1933,1,"5,19","11,66",,,6,4,5
124 REV,,05/02/1939,1,5,"12,54",6,9,3,,
125 REV,,03/12/1948,1,30,30,28,29,,15,23
126 REV,,18/04/1948,1,30,30,30,30,30,,30
127 REV,,18/12/1943,1,30,30,30,30,30,,30
128 REV,,06/08/1944,1,"12,65",,,23,,,23
129 REV,,18/01/1948,0,30,30,30,30,30,30,30
130 REV,,19/07/1952,0,30,,,,,,
131 REV,,28/02/1950,0,30,30,13,,,,20
132 REV,,24/08/1958,0,30,30,30,30,30,30,30
133 REV,,09/05/1949,0,30,,30,30,30,,30
134 REV,,16/12/1946,0,30,30,30,30,30,,30
135 REV,,08/01/1944,1,30,30,30,,,30,30
136 REV,,30/09/1960,0,30,30,30,30,30,30,30
137 REV,,05/04/1946,0,30,30,30,,30,30,30
138 REV,,15/08/1952,0,30,30,30,,30,30,
139 REV,,05/06/1942,0,30,30,30,30,30,,
140 REV,,03/05/1941,0,30,,,,,,
141 REV,,05/08/1938,0,,,,,,,
142 REV,,25/05/1943,0,30,30,30,30,30,30,30
143 REV,,08/09/1936,0,26,17,,,,,
144 REV,,01/07/1950,0,30,30,30,30,30,30,30
145 REV,,27/08/1943,0,30,21,30,30,30,30,30
146 REV,,23/03/1938,0,22,,,,,,
147 REV,,14/05/1951,0,30,30,30,30,30,30,30
148 REV,,06/11/1944,0,"11,59",,,30,30,,24
149 REV,,18/12/1948,0,,,,,,,
150 REV,,30/06/1947,0,30,30,30,30,30,30,30
151 REV,,16/12/1947,1,30,30,30,30,30,30,30
152 REV,,14/09/1934,1,"12,34",,,,,,
153 REV,,17/02/1939,0,,,,,,,
154 REV,,08/03/1947,0,,,,,,,
155 REV,,14/02/1940,0,,,,,,,
156 REV,,22/07/1948,0,30,30,30,30,,,30
157 REV,,28/07/1961,0,30,,,,,,30
158 REV,,10/09/1952,0,,,,,,,30
1 MUSC,,23/05/2025,0,,,,,,,
2 MUSC,,14/04/1947,1,30,30,30,30,,,
3 MUSC,,28/02/1948,1,30,,30,,,,
4 MUSC,,23/08/1932,0,,20,"3,10",,"10,31",2,
5 MUSC,,26/06/1952,0,,,,,,,
6 MUSC,,08/04/1940,0,7,,"15,29",17,,,
7 MUSC,,19/01/1930,1,,,,,,,
8 MUSC,,21/08/1950,1,,,,,,,
9 MUSC,,26/02/1951,0,,30,,30,30,30,
10 MUSC,,21/04/1950,0,30,30,30,30,,,
11 MUSC,,02/12/1948,0,30,,,,,,
12 MUSC,,07/04/1931,1,11,"13,25","9,88",11,,,17
13 MUSC,,05/08/2023,1,"13,94","23,53",,,,,
14 MUSC,,24/09/1944,0,7,,,,,,
15 MUSC,,29/07/1931,1,30,30,"14,62",27,,30,30
16 MUSC,,13/04/1936,0,30,30,30,30,,30,30
17 MUSC,,01/02/1945,1,,30,30,30,30,30,30
18 MUSC,,02/05/1949,1,,30,,30,30,30,30
19 MUSC,,30/09/1932,1,,,,,,,
20 MUSC,,02/01/1948,1,30,30,30,30,30,30,
21 MUSC,,12/06/1949,0,17,,,,,,
22 MUSC,,   11/01/52,0,,,"21,46","20,94","15,65",,
23 MUSC,,07/10/48   ,0,30,30,30,30,30,30,30
24 MUSC,,05/09/1932,0,"6,0",4,,,,,
25 MUSC,,05/08/50  ,0,30,,30,,,,
26 MUSC,,19/04/1947,0,30,30,,30,,,
27 MUSC,,24/10/1944,0,30,,30,7,,,
28 MUSC,,14/05/2028,0,"6,22",10,,,,,
29 MUSC,,09/11/1957,0,30,30,30,30,,,30
30 MUSC,,01/06/1942,1,"8,0",8,,,,,
31 MUSC,,25/02/1930,1,"8,53",,,,,,
32 MUSC,,09/08/1943,1,30,30,30,30,,30,30
33 MUSC,,15/03/1950,0,30,30,,30,,30,30
34 MUSC,,10/04/1930,0,,"6,38","6,84",10,,,"12,08"
35 MUSC,,30/10/1953,0,30,30,,30,,,
36 MUSC,,06/08/1958,0,30,30,30,30,30,30,30
37 MUSC,,21/07/53  ,0,30,30,30,30,30,30,30
38 MUSC,,08/11/1961,0,,,,,,,
39 MUSC,,16/09/1941,0,"7,94",11,"12,13","11,64",,10,
40 MUSC,,09/09/1954,0,30,30,,,,,
41 MUSC,,18/06/1938,1,"10,72",4,"10,93","7,17",,6,
42 MUSC,,01/12/1941,0,"4,75",,"9,72",5,,,"2,78"
43 MUSC,,10/03/1949,1,,30,,"14,82",,8,
44 MUSC,,08/02/48   ,0,30,27,,,,21,"6,5"
45 MUSC,,25/06/1951,0,30,,,,,,
46 MUSC,,15/11/1945,0,30,30,"13,88",15,,,30
47 MUSC,,14/02/1942,0,20,29,"10,55",30,,25,16
48 MUSC,,27/03/2029,0,"4,18","3,03",,"14,29",,3,"3,93"
49 MUSC,,07/06/2023,1,"12,21","1,88",,,,,
51 MUSC,,10/11/1950,0,,,,,,30,30
52 MUSC,,02/08/1955,0,,,,,,30,30
53 MUSC,,28/07/1951,0,,,,,,30,
1 GC,,30/06/1939,1,,,,,,,
2 GC,,24/02/1931,1,30,30,30,30,30,,30
3 GC,,16/10/1942,1,"19,83",30,,,,4,"7,91"
4 GC,,10/04/1933,0,,,,,,,
5 GC,,07/06/1930,1,,,,,,,
6 GC,,19/03/1936,0,,,,30,30,30,30
7 GC,,19/04/1944,0,30,30,,,,,
8 GC,,17/09/2025,1,,-,,,,,
9 GC,,11/03/1945,1,30,30,,,30,,30
10 GC,,29/05/1945,0,30,,,,,,30
11 GC,,01/01/1933,0,,,30,,,,
12 GC,,26/07/2029,0,,,,,,,
13 GC,,28/02/1946,0,24,9,30,,,30,
14 GC,,21/05/1934,0,,,,,,,
15 GC,,06/01/1940,0,30,,,,,,30
16 GC,,30/01/1954,0,,,,,,,
17 GC,,12/12/1943,0,,,,,,,
18 GC,,22/09/1960,0,,,,,,30,
19 GC,,20/08/2026,0,,7,5,8,"9,34",10,
20 GC,,20/08/1939,0,30,30,,,"11,5",15,"15,72"
21 GC,,11/08/2024,0,"2,75","1,21",2,,2,1,
22 GC,,08/09/1947,0,,,,,,,
23 GC,,16/04/1954,0,,,30,30,,,30
24 GC,,10/02/1944,0,,,,,,,
25 GC,,29/06/1936,0,,,,,,,
26 GC,,05/08/1932,0,,,,,,,
27 GC,,31/10/1941,0,30,30,,,30,30,30
28 GC,,01/12/1944,0,30,30,30,30,,30,30
29 GC,,11/08/1953,0,30,30,30,30,,30,30
30 GC,,08/01/1944,0,"3,10",,"2,98",,,,
31 GC,,29/08/1939,0,,30,"17,75",20,,,
32 GC,,27/03/1949,0,30,30,30,30,,,
33 GC,,25/09/1942,0,,12,"16,19","19,88",,2,
34 GC,,26/07/1938,0,,"4,44",7,10,"2,41",4,
35 GC,,09/04/1947,0,30,30,,30,,30,30
36 GC,,13/01/1934,0,,30,30,27,30,,
37 GC,,29/03/1949,0,30,,,,30,,30
38 GC,,18/08/1943,1,,30,,,,30,
39 GC,,16/11/1952,1,,,,,,30,
40 GC,,24/02/1956,1,,17,,,30,,30
41 GC,,01/06/1937,0,,,,,,,
42 GC,,27/11/1933,0,"4,31",,3,"2,58","1,82",,
43 GC,,12/04/1955,0,30,30,30,,30,30,30
44 GC,,03/06/1947,0,,,,,,,
45 GC,,09/05/1931,0,,,,,,,
46 GC,,14/08/1947,0,30,,,30,30,,30
47 GC,,08/01/1949,0,,,,,,5,
