PESO,,,,,,,,,,
CODIGO,IDADE,DATA DE NASCIMENTO,SEXO,1ª MEDIDA,2ª MEDIDA,3ª MEDIDA,4ª MEDIDA,5ª MEDIDA,6ª MEDIDA,7ª MEDIDA
,,,,17/03/2014,30/06/2014,08/12/2014,09/03/2015,29/06/2015,30/11/2015,14/03/2016
1 REV,,09/08/1937,1,"49,0","49,8","50,5","51,8","51,5","50,0","50,1"
2 REV,,29/07/1949,1,"72,5","72,9","73,2","72,3","72,3","71,5","71,2"
3 REV,,29/05/1950,0,"69,8",,"73,0","73,2","72,8",,
4 REV,,01/03/1944,1,"55,5","55,9","54,5","54,3","53,6","54,0","52,4"
5 REV,,08/08/1940,0,"85,5",,"88,0","85,6","87,7","85,9","84,3"
6 REV,,06/04/1936,0,"64,5","65,3","63,4","63,7","64,0","62,2","61,0"
7 REV,,27/11/1933,0,,"56,5","58,1","59,3","58,0",,
8 REV,,05/08/1935,0,"56,5","56,3",,,,,
9 REV,,31/07/1946,0,"79,6","83,0",,"82,4",,,
10 REV,,02/07/1959,0,"90,5","89,4","90,6","92,0","89,2","87,3","86,7"
11 REV,,12/07/1949,0,,"63,0","63,1","62,6","63,0","61,0","62,3"
12 REV,,29/11/1955,0,"82,3",,,,,,
13 REV,,14/02/1947,0,"88,0","86,1","84,7","86,5","86,3","86,6","87,2"
14 REV,,15/10/1953,0,"71,6","72,1","71,8","70,7","71,1",,
15 REV,,31/08/1949,1,"80,5","82,8","83,0","83,9","82,2","83,6","83,8"
16 REV,,14/01/1958,0,"61,1","64,8","59,1","60,3","61,2",,"60,3"
17 REV,,20/06/1943,0,"64,0","61,5","64,0","66,0","67,8","67,0","70,4"
18 REV,,20/09/1943,0,"66,0","65,7","65,8","66,2","65,6","66,5","65,7"
19 REV,,25/11/1939,0,"55,0","55,5","55,7","56,3",,,"52,5"
20 REV,,26/04/1940,0,"60,5","61,7","62,4",,,,
21 REV,,02/01/1945,0,"59,2","57,9","57,8","58,0","57,0","54,8","56,1"
22 REV,,01/02/1951,0,"70,5","71,4","71,8","73,2","74,0","72,5","71,2"
23 REV,,09/10/1948,0,,"70,0","71,1","72,2","73,1","74,0","73,9"
24 REV,,22/11/1938,0,"58,5",,"57,7","59,3","58,1","57,5","58,9"
25 REV,,28/04/1935,0,"55,0","54,4","53,3",,,,
26 REV,,27/06/1953,0,,,"67,5","65,3","66,5","67,1","67,5"
27 REV,,14/08/1947,0,,,,,,,
28 REV,,08/10/1939,0,"84,0","84,5","85,9",,,"84,1","83,2"
29 REV,,06/01/1940,0,"60,5","61,2",,,"57,3","59,7","58,0"
30 REV,,25/02/1939,0,"45,7","46,7","46,1","46,5","47,4","48,0","46,5"
31 REV,,11/04/1953,0,"55,8",,,,,,
32 REV,,04/09/1934,0,"54,7","53,4","50,4","52,3","57,4","55,0","59,1"
33 REV,,08/03/1958,0,"69,5","72,0","72,4","73,7","76,3","71,0","71,5"
34 REV,,22/08/1933,0,"55,5","55,2","57,2","54,8",,,"50,6"
35 REV,,31/08/1943,0,,,"81,5",,,,
36 REV,,15/06/1955,0,"56,0","55,6","55,8","57,6","57,4","59,0","57,1"
37 REV,,13/12/1942,0,"85,0",,,"84,0","84,0",,
38 REV,,17/01/1951,0,"75,2","75,2","77,0","77,5","77,2",,"76,5"
39 REV,,05/12/1948,0,"60,1","60,3","61,7","62,2","62,2","60,5","62,5"
40 REV,,22/05/1949,0,"62,8","61,5","61,9","63,4","62,3","63,0","62,4"
41 REV,,16/09/1940,0,,,,,,,
42 REV,,07/04/1943,0,,,,,,,
43 REV,,06/04/1937,0,"72,9","73,5","73,3","76,0","75,3","74,3",
44 REV,,08/09/1954,0,"98,1","98,1","99,3","93,0","88,2","89,0","89,0"
45 REV,,04/12/1935,1,"87,8","86,1","87,9","85,0","84,0","82,3","82,1"
46 REV,,05/12/1939,1,"72,5","70,4",,,,"77,9",
47 REV,,18/12/1937,1,"77,5","78,0","77,5","74,9","69,5",,"71,6"
48 REV,,10/09/1944,1,"83,5","83,2","81,1","82,1","79,8","82,0","80,0"
49 REV,,19/08/1939,0,"51,8","51,0","49,5","50,6","52,0","52,0","52,3"
50 REV,,10/03/2026,0,"55,2","56,5","55,5","54,5",,,"52,5"
51 REV,,17/02/1936,0,,,,,,,
52 REV,,07/02/1937,0,"48,7","48,8",,,,,
53 REV,,23/08/1948,0,"72,5","73,7","73,4","74,1",,"72,4",
54 REV,,20/04/1940,0,"74,1","79,5",,"68,2",,,
55 REV,,27/01/1939,0,,,,,,,
56 REV,,28/07/1943,0,"74,5","74,5","75,5","74,2","73,5","74,7","77,6"
57 REV,,06/07/1933,0,"58,7",,"60,0",,,,
58 REV,,14/03/1949,1,"62,5","63,0","66,0","65,4","67,6",,
59 REV,,11/02/1937,1,"75,8","76,4","77,1","77,2","76,0","76,0","77,4"
60 REV,,14/01/1955,0,"45,0","46,4","46,6","47,6","47,7","45,7","47,0"
61 REV,,04/10/1930,0,,,,,,,
62 REV,,22/06/1946,0,"67,5",,"68,5","68,8","68,7","68,4",
63 REV,,02/04/1938,0,"60,0","58,9","58,0","59,8","59,0","58,6","60,5"
64 REV,,19/02/1948,1,"79,5","76,7","75,2","78,0","77,2","79,0","80,4"
65 REV,,03/08/1943,1,"71,3",,"74,2","72,8","75,0","72,6","74,5"
66 REV,,11/06/1949,1,,"65,1","65,2","65,7","68,6","65,5","64,3"
67 REV,,09/02/1944,1,,"60,0","59,0","58,2","58,5","58,5","59,8"
68 REV,,21/11/1936,1,"78,0","77,0","77,4","76,7",,"74,5","75,4"
69 REV,,25/01/1936,1,"68,5","66,5",,,,,
70 REV,,14/01/1947,1,"67,2","66,3","68,3","68,8","68,8","68,3","69,9"
71 REV,,13/11/1951,0,"75,5","77,5","75,5","75,9","77,3","76,6","76,3"
72 REV,,11/08/1934,0,"49,5","51,3","50,0","51,6","49,2","49,3","49,6"
73 REV,,03/10/1930,0,"76,3","77,0","77,0","76,4","76,5",,"76,2"
74 REV,,19/06/1933,0,,,,,,,
75 REV,,16/07/1947,0,"63,9","62,9","64,5","64,4",,"64,8","64,5"
76 REV,,15/02/2029,0,"56,5",,"54,1","53,7","53,6","52,3","52,5"
77 REV,,01/06/1946,0,"64,4","64,5","64,1","64,7",,"64,1","65,3"
78 REV,,17/10/1954,0,"65,0","63,1",,"63,9","63,3","63,4","67,5"
79 REV,,09/02/1944,1,"95,5","99,4","100,2","98,0","101,4","101,4","99,3"
80 REV,,06/02/1941,0,,"62,5",,"63,2","63,7","61,5","62,2"
81 REV,,09/06/1941,0,"60,5","61,0","61,0","62,0","62,6","61,4","63,0"
82 REV,,20/05/1942,0,"56,0","58,0","56,9","55,8",,,"55,7"
83 REV,,23/02/1961,0,"80,3","79,4","78,9","79,5","78,7","78,5",
84 REV,,18/10/1945,0,"69,0",,"68,3","67,5",,,"65,5"
85 REV,,19/11/1943,0,"46,2","47,4","47,0",,"46,4","47,7","46,0"
86 REV,,04/04/1938,0,"64,0","66,6","64,3","63,1","66,4","64,9",
87 REV,,29/12/1943,0,,"77,5",,,,,
88 REV,,01/06/1948,0,,"66,9","66,0","66,6","67,1","67,5","67,0"
89 REV,,02/07/1939,0,"54,3","52,2","52,8","54,0","53,2","56,3","55,6"
90 REV,,03/03/1942,0,"80,5","80,0","80,9","82,2","81,4","81,6","81,8"
91 REV,,27/04/1947,0,"53,9","54,8","53,5",,"53,5","54,2","54,2"
92 REV,,29/07/1934,0,"45,6","46,4","48,4",,,,
93 REV,,21/12/1945,0,"77,5","76,7","76,6","75,5","76,4","76,6","75,3"
94 REV,,30/08/1951,0,"46,2",,"46,4",,,,
95 REV,,06/03/1939,0,,,,"52,1",,,
96 REV,,18/05/1939,0,"52,1","52,2","52,8","53,6","55,5","55,0",
97 REV,,14/05/1945,0,"59,1","58,2","57,4","58,6","61,7","57,4","56,1"
98 REV,,02/05/1940,0,"87,7",,"86,0","82,9",,,
99 REV,,25/04/1939,0,"61,0","61,9","62,5","62,7","64,6","61,0","60,2"
100 REV,,02/12/1951,0,"100,1","100,6","101,2","100,8","98,4","101,8","100,3"
101 REV,,30/10/1953,0,"75,0","75,1","71,7","74,9","76,3","77,4","79,3"
102 REV,,26/11/1942,0,,"78,2","79,0","80,0",,"82,0",
103 REV,,05/10/1949,0,"57,4","58,3","57,5","57,8","57,0","59,2","57,3"
104 REV,,24/09/1942,0,"86,5","87,2",,,"84,1","88,0","86,1"
105 REV,,03/08/1954,0,"59,3","58,8","58,1","58,8","60,4","61,8","63,3"
106 REV,,20/04/1945,0,"65,0","64,4","64,7","65,9","65,2","64,8","65,9"
107 REV,,25/04/1946,0,"59,2","59,0","59,5","61,5",,"60,2","59,5"
108 REV,,05/03/1951,0,"72,8","74,3",,,,,"76,2"
109 REV,,05/08/1933,0,"55,5","54,5","56,1",,"56,5","57,0","59,1"
110 REV,,12/01/1948,0,"67,2",,,,,,
111 REV,,14/11/1948,0,"72,0","69,8","61,3","64,2","63,7","63,9","66,3"
112 REV,,20/08/1932,0,"73,9","73,0","71,1","71,7",,"69,8","70,3"
113 REV,,09/08/1944,0,"81,3","79,3","75,5","76,7","78,0","78,3","75,6"
114 REV,,11/06/1943,0,"76,2","78,3","77,3","75,9","76,5","76,5","77,1"
115 REV,,20/12/1947,0,"45,4","47,2","47,8",,"49,0","48,5","47,6"
116 REV,,18/05/1946,0,"92,9","94,4","93,1","97,6",,"87,9","89,1"
117 REV,,05/08/1944,0,"61,2","60,0","61,0","62,2",,"62,5","62,6"
118 REV,,28/10/1946,0,"92,0","96,8","97,1","98,8",,"98,9","98,2"
119 REV,,10/05/1938,0,,,,,,,
120 REV,,08/04/1947,0,"66,1","68,0","69,9","68,9","68,8","68,4","70,2"
121 REV,,08/05/1951,0,"80,0","83,3",,"84,5",,,"82,6"
122 REV,,29/04/1954,0,,,,,,,
123 REV,,18/05/1933,1,"81,6","80,9",,,"76,8","71,2","72,6"
124 REV,,05/02/1939,1,"77,5","78,0","83,5","83,0","80,0",,
125 REV,,03/12/1948,1,"113,5","115,5","114,8","116,1",,"116,0","116,8"
126 REV,,18/04/1948,1,"55,1","56,0","55,1","56,7","59,3",,"59,8"
127 REV,,18/12/1943,1,"86,2","85,0","84,9","86,5","84,5",,"85,0"
128 REV,,06/08/1944,1,"77,5",,,"80,0",,,"75,5"
129 REV,,18/01/1948,0,"68,9","69,2","70,3","69,4","71,8","72,7","71,6"
130 REV,,19/07/1952,0,"67,5",,,,,,
131 REV,,28/02/1950,0,"76,1","75,0","72,2",,,,"74,4"
132 REV,,24/08/1958,0,"64,4","62,5","63,9","64,0","65,4","62,7","63,5"
133 REV,,09/05/1949,0,"67,4",,"67,1","67,5","67,6",,"68,0"
134 REV,,16/12/1946,0,"74,0","74,1","74,6","75,9","76,5",,"75,6"
135 REV,,08/01/1944,1,"71,9","74,5","74,5",,,"76,5","74,9"
136 REV,,30/09/1960,0,"92,0","92,3","92,9","92,4","93,1","93,3","93,5"
137 REV,,05/04/1946,0,"64,3","65,0","64,7",,"68,2","66,8","66,5"
138 REV,,15/08/1952,0,"80,1","79,6","77,8",,"80,5","81,5",
139 REV,,05/06/1942,0,"42,0","42,4","42,5","40,4","38,5",,
140 REV,,03/05/1941,0,"51,8",,,,,,
141 REV,,05/08/1938,0,,,,,,,
142 REV,,25/05/1943,0,"57,5","58,2","60,6","59,1","60,4","60,5","60,7"
143 REV,,08/09/1936,0,"48,3","48,0",,,,,
144 REV,,01/07/1950,0,"67,5","68,6","65,2","70,8","71,7","72,6","72,3"
145 REV,,27/08/1943,0,"62,0","63,5","62,2","62,7","63,0","61,6","60,3"
146 REV,,23/03/1938,0,"63,8",,,,,,
147 REV,,14/05/1951,0,"59,5","58,4","59,0","57,2","57,3","57,3","56,5"
148 REV,,06/11/1944,0,"72,0",,,"71,1","72,8",,"72,8"
149 REV,,18/12/1948,0,,,,,,,
150 REV,,30/06/1947,0,"58,9","60,8","65,4","69,4","65,9","62,4","67,3"
151 REV,,16/12/1947,1,"82,0","84,0","83,2","81,7","82,5","83,5","85,7"
152 REV,,14/09/1934,1,"65,0",,,,,,
153 REV,,17/02/1939,0,,,"67,0",,,,
154 REV,,08/03/1947,0,,,,,,,
155 REV,,14/02/1940,0,,,,,,,
156 REV,,22/07/1948,0,"58,3","59,0","59,1","58,9",,,"60,9"
157 REV,,28/07/1961,0,"71,2",,,,,,"66,3"
158 REV,,10/09/1952,0,,,,,,,"79,0"
1 MUSC,,23/05/2025,0,,,,,,,
2 MUSC,,14/04/1947,1,"67,5","65,5","64,5","65,3",,,
3 MUSC,,28/02/1948,1,"97,4",,"95,5",,,,
4 MUSC,,23/08/1932,0,,"76,4","77,7",,"75,1","74,3",
5 MUSC,,26/06/1952,0,,,,,,,
6 MUSC,,08/04/1940,0,"68,8",,"69,0","68,0",,,
7 MUSC,,19/01/1930,1,,,,,,,
8 MUSC,,21/08/1950,1,,,,,,,
9 MUSC,,26/02/1951,0,,"73,3",,"70,7","70,8","69,6",
10 MUSC,,21/04/1950,0,"53,9","54,7","55,7","54,2",,,
11 MUSC,,02/12/1948,0,"76,5",,,,,,
12 MUSC,,07/04/1931,1,"74,5","74,5","75,4","74,0",,,"72,7"
13 MUSC,,05/08/2023,1,"66,0","70,7",,,,,
14 MUSC,,24/09/1944,0,"87,8",,,,,,
15 MUSC,,29/07/1931,1,"85,0","86,7","87,5","86,3",,"85,0","85,5"
16 MUSC,,13/04/1936,0,"68,0","69,4","70,8","69,5",,"68,8","68,4"
17 MUSC,,01/02/1945,1,,"72,0","73,3","71,8","71,9","70,9","72,4"
18 MUSC,,02/05/1949,1,,"68,0",,"68,1","69,5","68,9","69,5"
19 MUSC,,30/09/1932,1,,,,,,,
20 MUSC,,02/01/1948,1,"88,4","88,9","87,2","87,0","87,1","82,4",
21 MUSC,,12/06/1949,0,"77,6",,,,,,
22 MUSC,,   11/01/52,0,,,"73,2","73,2","73,2",,
23 MUSC,,07/10/48   ,0,"65,0","66,2","66,9","65,6","65,1","64,7","64,3"
24 MUSC,,05/09/1932,0,"78,0","78,7",,,,,
25 MUSC,,05/08/50  ,0,"58,9",,"56,7",,,,
26 MUSC,,19/04/1947,0,"55,7","59,4",,"59,7",,,
27 MUSC,,24/10/1944,0,"65,5",,"68,1","66,9",,,
28 MUSC,,14/05/2028,0,"63,0","62,1",,,,,
29 MUSC,,09/11/1957,0,"63,8","63,9","63,2","63,0",,,"64,7"
30 MUSC,,01/06/1942,1,"83,4","83,5",,,,,
31 MUSC,,25/02/1930,1,"76,5",,,,,,
32 MUSC,,09/08/1943,1,"82,3","83,1","84,8","85,3",,"81,3","83,0"
33 MUSC,,15/03/1950,0,"72,2","74,0",,"71,3",,"70,5","70,5"
34 MUSC,,10/04/1930,0,,"78,0","79,2","78,5",,,"83,0"
35 MUSC,,30/10/1953,0,"65,0","64,5",,"67,5",,,
36 MUSC,,06/08/1958,0,"72,4","72,5","71,8","72,2","72,6","71,3","70,2"
37 MUSC,,21/07/53  ,0,"59,9","61,1","59,2","59,5","59,5","60,6","60,6"
38 MUSC,,08/11/1961,0,,,,,,,
39 MUSC,,16/09/1941,0,"74,5","77,5","77,5","77,1",,"76,0",
40 MUSC,,09/09/1954,0,"80,5","81,2",,,,,
41 MUSC,,18/06/1938,1,"75,0","79,0","74,1","75,3",,"73,0",
42 MUSC,,01/12/1941,0,"78,2",,"78,8","79,2",,,"76,0"
43 MUSC,,10/03/1949,1,,"84,0",,"81,7",,"82,5",
44 MUSC,,08/02/48   ,0,"66,4","67,3","66,6",,,"68,2","67,0"
45 MUSC,,25/06/1951,0,"53,8",,,,,,
46 MUSC,,15/11/1945,0,"79,1","76,8","76,7","74,7",,,"78,2"
47 MUSC,,14/02/1942,0,"77,0","76,5","78,2","78,4",,"77,7","78,3"
48 MUSC,,27/03/2029,0,"46,9","45,6",,"46,7",,"48,6","50,0"
49 MUSC,,07/06/2023,1,"45,9","45,0",,,,,
51 MUSC,,10/11/1950,0,,,,,,"61,7","62,0"
52 MUSC,,02/08/1955,0,,,,,,"65,3","64,6"
53 MUSC,,28/07/1951,0,,,,,,"69,1",
1 GC,,30/06/1939,1,,,,,,,
2 GC,,24/02/1931,1,"72,1","72,4","73,5","74,3","73,3",,"72,5"
3 GC,,16/10/1942,1,"73,3","74,0",,,,"77,3","77,5"
4 GC,,10/04/1933,0,,,,,,,
5 GC,,07/06/1930,1,,,,,,,
6 GC,,19/03/1936,0,,,,"66,5","67,2","66,7","66,7"
7 GC,,19/04/1944,0,"58,2","58,1",,,,,
8 GC,,17/09/2025,1,,"63,7","64,5","64,6","63,3",,"65,6"
9 GC,,11/03/1945,1,"75,1","77,0",,,"77,2",,"76,6"
10 GC,,29/05/1945,0,"47,6",,,,,,"48,7"
11 GC,,01/01/1933,0,,,"45,4",,,,
12 GC,,26/07/2029,0,,,,,,,
13 GC,,28/02/1946,0,"59,5","59,0","56,9",,,"56,7",
14 GC,,21/05/1934,0,,,,,,,
15 GC,,06/01/1940,0,"56,2",,,,,,"54,0"
16 GC,,30/01/1954,0,,,,,,,
17 GC,,12/12/1943,0,,,,,,,
18 GC,,22/09/1960,0,,,,,,"59,1",
19 GC,,20/08/2026,0,,"53,1","52,1","52,0","52,6","52,3",
20 GC,,20/08/1939,0,"53,7","54,0",,,"57,0","53,3","53,3"
21 GC,,11/08/2024,0,"64,0","63,5","64,5","65,4","63,3","60,7",
22 GC,,08/09/1947,0,,,,,,,
23 GC,,16/04/1954,0,,,"58,5","59,9",,,"59,8"
24 GC,,10/02/1944,0,,,,,,,
25 GC,,29/06/1936,0,,,,,,,
26 GC,,05/08/1932,0,,,,,,,
27 GC,,31/10/1941,0,"66,0","65,8",,,"66,5","68,0","68,0"
28 GC,,01/12/1944,0,"45,7","45,6","45,5","45,40",,"45,0","43,0"
29 GC,,11/08/1953,0,"86,5","85,0","85,0","84,5",,"85,5","84,5"
30 GC,,08/01/1944,0,"59,9",,"61,0",,,"61,4",
31 GC,,29/08/1939,0,,"53,6","55,9","56,5",,,
32 GC,,27/03/1949,0,"53,7","54,3","54,7","56,5",,,
33 GC,,25/09/1942,0,,"52,5","52,6","53,3",,"53,7",
34 GC,,26/07/1938,0,,"74,9","72,5","72,2","71,2","69,0",
35 GC,,09/04/1947,0,"79,2","81,0",,"79,1",,"80,4","81,2"
36 GC,,13/01/1934,0,,"58,5","61,0","60,5","61,5",,
37 GC,,29/03/1949,0,"95,5",,,,"101,3",,"100,0"
38 GC,,18/08/1943,1,,"93,0",,,,"91,2",
39 GC,,16/11/1952,1,,,,,,"80,1",
40 GC,,24/02/1956,1,,"81,2",,,"77,7",,"82,6"
41 GC,,01/06/1937,0,,,,,,,
42 GC,,27/11/1933,0,"47,3",,"50,6","49,90","51,80",,
43 GC,,12/04/1955,0,"68,1","69,0","68,2",,"71,7","71,5","67,9"
44 GC,,03/06/1947,0,,,,,,,
45 GC,,09/05/1931,0,,,,,,,
46 GC,,14/08/1947,0,"76,5",,,"79,6","79,5",,"76,5"
47 GC,,08/01/1949,0,,,,,,"66,5",
